{"created_at": "Mon Oct 11 19:50:41 +0000 2021", "id": 1447650884054396931, "id_str": "1447650884054396931", "full_text": "RT @MatthewH_books: Sewage and waste pollution from 20million intensive chickens are killing the Wye. What can you do? Don't eat cheap chic\u2026", "truncated": false, "display_text_range": [0, 140], "entities": {"hashtags": [], "symbols": [], "user_mentions": [{"screen_name": "MatthewH_books", "name": "Matthew Hall", "id": 233954540, "id_str": "233954540", "indices": [3, 18]}], "urls": []}, "metadata": {"iso_language_code": "en", "result_type": "recent"}, "source": "<a href=\"https://mobile.twitter.com\" rel=\"nofollow\">Twitter Web App</a>", "in_reply_to_status_id": null, "in_reply_to_status_id_str": null, "in_reply_to_user_id": null, "in_reply_to_user_id_str": null, "in_reply_to_screen_name": null, "user": {"id": 575349562, "id_str": "575349562", "name": "Sian Thomas \ud83c\udf4a\ud83c\udf4a\ud83c\udf4a\ud83c\udf33", "screen_name": "SianThomas7", "location": "", "description": "For the many not the few", "url": null, "entities": {"description": {"urls": []}}, "protected": false, "followers_count": 4983, "friends_count": 5236, "listed_count": 20, "created_at": "Wed May 09 13:19:20 +0000 2012", "favourites_count": 55108, "utc_offset": null, "time_zone": null, "geo_enabled": false, "verified": false, "statuses_count": 60836, "lang": null, "contributors_enabled": false, "is_translator": false, "is_translation_enabled": false, "profile_background_color": "C0DEED", "profile_background_image_url": "http://abs.twimg.com/images/themes/theme1/bg.png", "profile_background_image_url_https": "https://abs.twimg.com/images/themes/theme1/bg.png", "profile_background_tile": false, "profile_image_url": "http://pbs.twimg.com/profile_images/876111983782879232/6_cyxAOe_normal.jpg", "profile_image_url_https": "https://pbs.twimg.com/profile_images/876111983782879232/6_cyxAOe_normal.jpg", "profile_link_color": "1DA1F2", "profile_sidebar_border_color": "C0DEED", "profile_sidebar_fill_color": "DDEEF6", "profile_text_color": "333333", "profile_use_background_image": true, "has_extended_profile": false, "default_profile": true, "default_profile_image": false, "following": false, "follow_request_sent": false, "notifications": false, "translator_type": "none", "withheld_in_countries": []}, "geo": null, "coordinates": null, "place": null, "contributors": null, "retweeted_status": {"created_at": "Thu Sep 23 10:16:13 +0000 2021", "id": 1440983333685579778, "id_str": "1440983333685579778", "full_text": "Sewage and waste pollution from 20million intensive chickens are killing the Wye. What can you do? Don't eat cheap chicken and cancel your direct debit to Dwr Cymru. Make them suffer and we might get some action. Infrastructure needs big overhaul. https://t.co/5w2lDOaRAY", "truncated": false, "display_text_range": [0, 247], "entities": {"hashtags": [], "symbols": [], "user_mentions": [], "urls": [{"url": "https://t.co/5w2lDOaRAY", "expanded_url": "https://twitter.com/girlontheriver/status/1440002304669884416", "display_url": "twitter.com/girlontheriver\u2026", "indices": [248, 271]}]}, "metadata": {"iso_language_code": "en", "result_type": "recent"}, "source": "<a href=\"http://twitter.com/download/android\" rel=\"nofollow\">Twitter for Android</a>", "in_reply_to_status_id": null, "in_reply_to_status_id_str": null, "in_reply_to_user_id": null, "in_reply_to_user_id_str": null, "in_reply_to_screen_name": null, "user": {"id": 233954540, "id_str": "233954540", "name": "Matthew Hall", "screen_name": "MatthewH_books", "location": "Monmouth, UK", "description": "Novelist. Screenwriter. Creator of #KeepingFaith, Jenny Cooper  #Coroner novels & #TheBlackArtofKilling. Former barrister into all things legal.", "url": "https://t.co/eIWnw634I2", "entities": {"url": {"urls": [{"url": "https://t.co/eIWnw634I2", "expanded_url": "http://www.matthewhallbooks.com", "display_url": "matthewhallbooks.com", "indices": [0, 23]}]}, "description": {"urls": []}}, "protected": false, "followers_count": 4995, "friends_count": 3974, "listed_count": 58, "created_at": "Tue Jan 04 14:17:25 +0000 2011", "favourites_count": 12019, "utc_offset": null, "time_zone": null, "geo_enabled": true, "verified": false, "statuses_count": 8445, "lang": null, "contributors_enabled": false, "is_translator": false, "is_translation_enabled": false, "profile_background_color": "FFFFFF", "profile_background_image_url": "http://abs.twimg.com/images/themes/theme1/bg.png", "profile_background_image_url_https": "https://abs.twimg.com/images/themes/theme1/bg.png", "profile_background_tile": false, "profile_image_url": "http://pbs.twimg.com/profile_images/1230141068655648768/A8ljMYIo_normal.jpg", "profile_image_url_https": "https://pbs.twimg.com/profile_images/1230141068655648768/A8ljMYIo_normal.jpg", "profile_banner_url": "https://pbs.twimg.com/profile_banners/233954540/1582798105", "profile_link_color": "0084B4", "profile_sidebar_border_color": "FFFFFF", "profile_sidebar_fill_color": "DDFFCD", "profile_text_color": "333333", "profile_use_background_image": true, "has_extended_profile": true, "default_profile": false, "default_profile_image": false, "following": false, "follow_request_sent": false, "notifications": false, "translator_type": "none", "withheld_in_countries": []}, "geo": null, "coordinates": null, "place": null, "contributors": null, "is_quote_status": true, "quoted_status_id": 1440002304669884416, "quoted_status_id_str": "1440002304669884416", "quoted_status": {"created_at": "Mon Sep 20 17:17:58 +0000 2021", "id": 1440002304669884416, "id_str": "1440002304669884416", "full_text": "Yesterday on the River Wye - phosphate level of 0.47ppm. Should be an absolute maximum of 0.1. We need urgent action. https://t.co/siYhwLijlg", "truncated": false, "display_text_range": [0, 117], "entities": {"hashtags": [], "symbols": [], "user_mentions": [], "urls": [], "media": [{"id": 1440002280015732739, "id_str": "1440002280015732739", "indices": [118, 141], "media_url": "http://pbs.twimg.com/media/E_vqcbgXIAMRYRG.jpg", "media_url_https": "https://pbs.twimg.com/media/E_vqcbgXIAMRYRG.jpg", "url": "https://t.co/siYhwLijlg", "display_url": "pic.twitter.com/siYhwLijlg", "expanded_url": "https://twitter.com/girlontheriver/status/1440002304669884416/photo/1", "type": "photo", "sizes": {"thumb": {"w": 150, "h": 150, "resize": "crop"}, "large": {"w": 1536, "h": 2048, "resize": "fit"}, "small": {"w": 510, "h": 680, "resize": "fit"}, "medium": {"w": 900, "h": 1200, "resize": "fit"}}}]}, "extended_entities": {"media": [{"id": 1440002280015732739, "id_str": "1440002280015732739", "indices": [118, 141], "media_url": "http://pbs.twimg.com/media/E_vqcbgXIAMRYRG.jpg", "media_url_https": "https://pbs.twimg.com/media/E_vqcbgXIAMRYRG.jpg", "url": "https://t.co/siYhwLijlg", "display_url": "pic.twitter.com/siYhwLijlg", "expanded_url": "https://twitter.com/girlontheriver/status/1440002304669884416/photo/1", "type": "photo", "sizes": {"thumb": {"w": 150, "h": 150, "resize": "crop"}, "large": {"w": 1536, "h": 2048, "resize": "fit"}, "small": {"w": 510, "h": 680, "resize": "fit"}, "medium": {"w": 900, "h": 1200, "resize": "fit"}}}, {"id": 1440002300626489344, "id_str": "1440002300626489344", "indices": [118, 141], "media_url": "http://pbs.twimg.com/media/E_vqdoSWUAAE35M.jpg", "media_url_https": "https://pbs.twimg.com/media/E_vqdoSWUAAE35M.jpg", "url": "https://t.co/siYhwLijlg", "display_url": "pic.twitter.com/siYhwLijlg", "expanded_url": "https://twitter.com/girlontheriver/status/1440002304669884416/photo/1", "type": "photo", "sizes": {"small": {"w": 510, "h": 680, "resize": "fit"}, "thumb": {"w": 150, "h": 150, "resize": "crop"}, "medium": {"w": 900, "h": 1200, "resize": "fit"}, "large": {"w": 1536, "h": 2048, "resize": "fit"}}}]}, "metadata": {"iso_language_code": "en", "result_type": "recent"}, "source": "<a href=\"http://twitter.com/download/android\" rel=\"nofollow\">Twitter for Android</a>", "in_reply_to_status_id": null, "in_reply_to_status_id_str": null, "in_reply_to_user_id": null, "in_reply_to_user_id_str": null, "in_reply_to_screen_name": null, "user": {"id": 352979676, "id_str": "352979676", "name": "Patricia Carswell rowing journo/blogger/podcaster", "screen_name": "girlontheriver", "location": "River Wye", "description": "Pint-sized #rowing journo, blogger, podcaster \ud83c\udf99\ufe0f\nAmbassador @FutureFit_UK \ud83c\udfcb\n@Concept2-certified instructor \ud83d\udea3\u200d\u2640\ufe0f\nBangs on about clean rivers \ud83d\udca6\ud83d\udc9a", "url": "https://t.co/i725zMItqF", "entities": {"url": {"urls": [{"url": "https://t.co/i725zMItqF", "expanded_url": "http://girlontheriver.com", "display_url": "girlontheriver.com", "indices": [0, 23]}]}, "description": {"urls": []}}, "protected": false, "followers_count": 4267, "friends_count": 2807, "listed_count": 62, "created_at": "Thu Aug 11 11:04:14 +0000 2011", "favourites_count": 18640, "utc_offset": null, "time_zone": null, "geo_enabled": true, "verified": false, "statuses_count": 19930, "lang": null, "contributors_enabled": false, "is_translator": false, "is_translation_enabled": false, "profile_background_color": "C0DEED", "profile_background_image_url": "http://abs.twimg.com/images/themes/theme1/bg.png", "profile_background_image_url_https": "https://abs.twimg.com/images/themes/theme1/bg.png", "profile_background_tile": true, "profile_image_url": "http://pbs.twimg.com/profile_images/1432733693924216836/K6YyBNt5_normal.jpg", "profile_image_url_https": "https://pbs.twimg.com/profile_images/1432733693924216836/K6YyBNt5_normal.jpg", "profile_banner_url": "https://pbs.twimg.com/profile_banners/352979676/1631631121", "profile_link_color": "ABB8C2", "profile_sidebar_border_color": "C0DEED", "profile_sidebar_fill_color": "DDEEF6", "profile_text_color": "333333", "profile_use_background_image": true, "has_extended_profile": true, "default_profile": false, "default_profile_image": false, "following": false, "follow_request_sent": false, "notifications": false, "translator_type": "none", "withheld_in_countries": []}, "geo": null, "coordinates": null, "place": null, "contributors": null, "is_quote_status": false, "retweet_count": 1954, "favorite_count": 4924, "favorited": false, "retweeted": false, "possibly_sensitive": false, "lang": "en"}, "retweet_count": 2, "favorite_count": 7, "favorited": false, "retweeted": false, "possibly_sensitive": false, "lang": "en"}, "is_quote_status": true, "quoted_status_id": 1440002304669884416, "quoted_status_id_str": "1440002304669884416", "retweet_count": 2, "favorite_count": 0, "favorited": false, "retweeted": false, "lang": "en"}
{"created_at": "Sat Oct 09 17:13:00 +0000 2021", "id": 1446886424981041157, "id_str": "1446886424981041157", "full_text": "A \u201cdisgusting\u201d sewage smell will be investigated by D\u0175r Cymru after residents complained that the \u201cunacceptable\u201d odour was causing families \u201cdistress\u201d\n\nhttps://t.co/UHBRM6IrBr", "truncated": false, "display_text_range": [0, 175], "entities": {"hashtags": [], "symbols": [], "user_mentions": [], "urls": [{"url": "https://t.co/UHBRM6IrBr", "expanded_url": "https://www.cambrian-news.co.uk/article.cfm?id=137609", "display_url": "cambrian-news.co.uk/article.cfm?id\u2026", "indices": [152, 175]}]}, "metadata": {"iso_language_code": "en", "result_type": "recent"}, "source": "<a href=\"https://about.twitter.com/products/tweetdeck\" rel=\"nofollow\">TweetDeck</a>", "in_reply_to_status_id": null, "in_reply_to_status_id_str": null, "in_reply_to_user_id": null, "in_reply_to_user_id_str": null, "in_reply_to_screen_name": null, "user": {"id": 126018649, "id_str": "126018649", "name": "Cambrian News", "screen_name": "CambrianNews", "location": "", "description": "Wales' biggest-selling weekly newspaper, covering Ceredigion, Montgomeryshire, Gwynedd and north Carmarthenshire", "url": "https://t.co/HRvqf4047u", "entities": {"url": {"urls": [{"url": "https://t.co/HRvqf4047u", "expanded_url": "http://www.cambrian-news.co.uk", "display_url": "cambrian-news.co.uk", "indices": [0, 23]}]}, "description": {"urls": []}}, "protected": false, "followers_count": 11901, "friends_count": 4229, "listed_count": 150, "created_at": "Wed Mar 24 15:45:47 +0000 2010", "favourites_count": 646, "utc_offset": null, "time_zone": null, "geo_enabled": true, "verified": true, "statuses_count": 29943, "lang": null, "contributors_enabled": false, "is_translator": false, "is_translation_enabled": false, "profile_background_color": "C0DEED", "profile_background_image_url": "http://abs.twimg.com/images/themes/theme1/bg.png", "profile_background_image_url_https": "https://abs.twimg.com/images/themes/theme1/bg.png", "profile_background_tile": true, "profile_image_url": "http://pbs.twimg.com/profile_images/1366690767150985217/NOHQlWOj_normal.jpg", "profile_image_url_https": "https://pbs.twimg.com/profile_images/1366690767150985217/NOHQlWOj_normal.jpg", "profile_banner_url": "https://pbs.twimg.com/profile_banners/126018649/1582733052", "profile_link_color": "B30F0F", "profile_sidebar_border_color": "C0DEED", "profile_sidebar_fill_color": "DDEEF6", "profile_text_color": "333333", "profile_use_background_image": true, "has_extended_profile": false, "default_profile": false, "default_profile_image": false, "following": false, "follow_request_sent": false, "notifications": false, "translator_type": "none", "withheld_in_countries": []}, "geo": null, "coordinates": null, "place": null, "contributors": null, "is_quote_status": false, "retweet_count": 0, "favorite_count": 0, "favorited": false, "retweeted": false, "possibly_sensitive": false, "lang": "en"}
{"created_at": "Sat Oct 09 11:13:39 +0000 2021", "id": 1446795991978553348, "id_str": "1446795991978553348", "full_text": "RT @CambrianNews: A \u201cdisgusting\u201d sewage smell will be investigated by D\u0175r Cymru after residents complained that the \u201cunacceptable\u201d odour wa\u2026", "truncated": false, "display_text_range": [0, 140], "entities": {"hashtags": [], "symbols": [], "user_mentions": [{"screen_name": "CambrianNews", "name": "Cambrian News", "id": 126018649, "id_str": "126018649", "indices": [3, 16]}], "urls": []}, "metadata": {"iso_language_code": "en", "result_type": "recent"}, "source": "<a href=\"http://twitter.com/download/android\" rel=\"nofollow\">Twitter for Android</a>", "in_reply_to_status_id": null, "in_reply_to_status_id_str": null, "in_reply_to_user_id": null, "in_reply_to_user_id_str": null, "in_reply_to_screen_name": null, "user": {"id": 3330827134, "id_str": "3330827134", "name": "\u2206", "screen_name": "intelcymru", "location": "Meirionnydd", "description": "The rumours of my death ,I think,are untrue.\nLove Wales,not the weather.\n(Mostly)\nI'm over here now\nIf you like being offended or complaining/reporting sod off.", "url": null, "entities": {"description": {"urls": []}}, "protected": false, "followers_count": 305, "friends_count": 1758, "listed_count": 1, "created_at": "Wed Jun 17 04:47:07 +0000 2015", "favourites_count": 117376, "utc_offset": null, "time_zone": null, "geo_enabled": true, "verified": false, "statuses_count": 43974, "lang": null, "contributors_enabled": false, "is_translator": false, "is_translation_enabled": false, "profile_background_color": "C0DEED", "profile_background_image_url": "http://abs.twimg.com/images/themes/theme1/bg.png", "profile_background_image_url_https": "https://abs.twimg.com/images/themes/theme1/bg.png", "profile_background_tile": false, "profile_image_url": "http://pbs.twimg.com/profile_images/718161155101949952/xoCkwx2r_normal.jpg", "profile_image_url_https": "https://pbs.twimg.com/profile_images/718161155101949952/xoCkwx2r_normal.jpg", "profile_link_color": "1DA1F2", "profile_sidebar_border_color": "C0DEED", "profile_sidebar_fill_color": "DDEEF6", "profile_text_color": "333333", "profile_use_background_image": true, "has_extended_profile": false, "default_profile": true, "default_profile_image": false, "following": false, "follow_request_sent": false, "notifications": false, "translator_type": "none", "withheld_in_countries": []}, "geo": null, "coordinates": null, "place": null, "contributors": null, "retweeted_status": {"created_at": "Sat Oct 09 11:03:00 +0000 2021", "id": 1446793311738552321, "id_str": "1446793311738552321", "full_text": "A \u201cdisgusting\u201d sewage smell will be investigated by D\u0175r Cymru after residents complained that the \u201cunacceptable\u201d odour was causing families \u201cdistress\u201d\n\nhttps://t.co/UHBRM6qQJT", "truncated": false, "display_text_range": [0, 175], "entities": {"hashtags": [], "symbols": [], "user_mentions": [], "urls": [{"url": "https://t.co/UHBRM6qQJT", "expanded_url": "https://www.cambrian-news.co.uk/article.cfm?id=137609", "display_url": "cambrian-news.co.uk/article.cfm?id\u2026", "indices": [152, 175]}]}, "metadata": {"iso_language_code": "en", "result_type": "recent"}, "source": "<a href=\"https://about.twitter.com/products/tweetdeck\" rel=\"nofollow\">TweetDeck</a>", "in_reply_to_status_id": null, "in_reply_to_status_id_str": null, "in_reply_to_user_id": null, "in_reply_to_user_id_str": null, "in_reply_to_screen_name": null, "user": {"id": 126018649, "id_str": "126018649", "name": "Cambrian News", "screen_name": "CambrianNews", "location": "", "description": "Wales' biggest-selling weekly newspaper, covering Ceredigion, Montgomeryshire, Gwynedd and north Carmarthenshire", "url": "https://t.co/HRvqf4047u", "entities": {"url": {"urls": [{"url": "https://t.co/HRvqf4047u", "expanded_url": "http://www.cambrian-news.co.uk", "display_url": "cambrian-news.co.uk", "indices": [0, 23]}]}, "description": {"urls": []}}, "protected": false, "followers_count": 11901, "friends_count": 4229, "listed_count": 150, "created_at": "Wed Mar 24 15:45:47 +0000 2010", "favourites_count": 646, "utc_offset": null, "time_zone": null, "geo_enabled": true, "verified": true, "statuses_count": 29943, "lang": null, "contributors_enabled": false, "is_translator": false, "is_translation_enabled": false, "profile_background_color": "C0DEED", "profile_background_image_url": "http://abs.twimg.com/images/themes/theme1/bg.png", "profile_background_image_url_https": "https://abs.twimg.com/images/themes/theme1/bg.png", "profile_background_tile": true, "profile_image_url": "http://pbs.twimg.com/profile_images/1366690767150985217/NOHQlWOj_normal.jpg", "profile_image_url_https": "https://pbs.twimg.com/profile_images/1366690767150985217/NOHQlWOj_normal.jpg", "profile_banner_url": "https://pbs.twimg.com/profile_banners/126018649/1582733052", "profile_link_color": "B30F0F", "profile_sidebar_border_color": "C0DEED", "profile_sidebar_fill_color": "DDEEF6", "profile_text_color": "333333", "profile_use_background_image": true, "has_extended_profile": false, "default_profile": false, "default_profile_image": false, "following": false, "follow_request_sent": false, "notifications": false, "translator_type": "none", "withheld_in_countries": []}, "geo": null, "coordinates": null, "place": null, "contributors": null, "is_quote_status": false, "retweet_count": 1, "favorite_count": 1, "favorited": false, "retweeted": false, "possibly_sensitive": false, "lang": "en"}, "is_quote_status": false, "retweet_count": 1, "favorite_count": 0, "favorited": false, "retweeted": false, "lang": "en"}
{"created_at": "Sat Oct 09 11:03:00 +0000 2021", "id": 1446793311738552321, "id_str": "1446793311738552321", "full_text": "A \u201cdisgusting\u201d sewage smell will be investigated by D\u0175r Cymru after residents complained that the \u201cunacceptable\u201d odour was causing families \u201cdistress\u201d\n\nhttps://t.co/UHBRM6qQJT", "truncated": false, "display_text_range": [0, 175], "entities": {"hashtags": [], "symbols": [], "user_mentions": [], "urls": [{"url": "https://t.co/UHBRM6qQJT", "expanded_url": "https://www.cambrian-news.co.uk/article.cfm?id=137609", "display_url": "cambrian-news.co.uk/article.cfm?id\u2026", "indices": [152, 175]}]}, "metadata": {"iso_language_code": "en", "result_type": "recent"}, "source": "<a href=\"https://about.twitter.com/products/tweetdeck\" rel=\"nofollow\">TweetDeck</a>", "in_reply_to_status_id": null, "in_reply_to_status_id_str": null, "in_reply_to_user_id": null, "in_reply_to_user_id_str": null, "in_reply_to_screen_name": null, "user": {"id": 126018649, "id_str": "126018649", "name": "Cambrian News", "screen_name": "CambrianNews", "location": "", "description": "Wales' biggest-selling weekly newspaper, covering Ceredigion, Montgomeryshire, Gwynedd and north Carmarthenshire", "url": "https://t.co/HRvqf4047u", "entities": {"url": {"urls": [{"url": "https://t.co/HRvqf4047u", "expanded_url": "http://www.cambrian-news.co.uk", "display_url": "cambrian-news.co.uk", "indices": [0, 23]}]}, "description": {"urls": []}}, "protected": false, "followers_count": 11901, "friends_count": 4229, "listed_count": 150, "created_at": "Wed Mar 24 15:45:47 +0000 2010", "favourites_count": 646, "utc_offset": null, "time_zone": null, "geo_enabled": true, "verified": true, "statuses_count": 29943, "lang": null, "contributors_enabled": false, "is_translator": false, "is_translation_enabled": false, "profile_background_color": "C0DEED", "profile_background_image_url": "http://abs.twimg.com/images/themes/theme1/bg.png", "profile_background_image_url_https": "https://abs.twimg.com/images/themes/theme1/bg.png", "profile_background_tile": true, "profile_image_url": "http://pbs.twimg.com/profile_images/1366690767150985217/NOHQlWOj_normal.jpg", "profile_image_url_https": "https://pbs.twimg.com/profile_images/1366690767150985217/NOHQlWOj_normal.jpg", "profile_banner_url": "https://pbs.twimg.com/profile_banners/126018649/1582733052", "profile_link_color": "B30F0F", "profile_sidebar_border_color": "C0DEED", "profile_sidebar_fill_color": "DDEEF6", "profile_text_color": "333333", "profile_use_background_image": true, "has_extended_profile": false, "default_profile": false, "default_profile_image": false, "following": false, "follow_request_sent": false, "notifications": false, "translator_type": "none", "withheld_in_countries": []}, "geo": null, "coordinates": null, "place": null, "contributors": null, "is_quote_status": false, "retweet_count": 1, "favorite_count": 1, "favorited": false, "retweeted": false, "possibly_sensitive": false, "lang": "en"}
{"created_at": "Thu Oct 07 15:00:52 +0000 2021", "id": 1446128398883909634, "id_str": "1446128398883909634", "full_text": "@SteveMorganNRW @wrurestore @NatResWales And yet @NRW cannot stop Dwr Cymru / Welsh Water illegally polluting our rivers with Raw sewage!   @NRW need to face a Judicial review for failing to protect our environment.", "truncated": false, "display_text_range": [41, 215], "entities": {"hashtags": [], "symbols": [], "user_mentions": [{"screen_name": "SteveMorganNRW", "name": "Steve Morgan", "id": 4408673908, "id_str": "4408673908", "indices": [0, 15]}, {"screen_name": "wrurestore", "name": "WelshRiversUnion", "id": 1360109464104427521, "id_str": "1360109464104427521", "indices": [16, 27]}, {"screen_name": "NatResWales", "name": "Cyfoeth Naturiol Cymru | Natural Resources Wales", "id": 906638953, "id_str": "906638953", "indices": [28, 40]}, {"screen_name": "nrw", "name": "nrw", "id": 14540340, "id_str": "14540340", "indices": [49, 53]}, {"screen_name": "nrw", "name": "nrw", "id": 14540340, "id_str": "14540340", "indices": [140, 144]}], "urls": []}, "metadata": {"iso_language_code": "en", "result_type": "recent"}, "source": "<a href=\"https://mobile.twitter.com\" rel=\"nofollow\">Twitter Web App</a>", "in_reply_to_status_id": 1445994150931935234, "in_reply_to_status_id_str": "1445994150931935234", "in_reply_to_user_id": 4408673908, "in_reply_to_user_id_str": "4408673908", "in_reply_to_screen_name": "SteveMorganNRW", "user": {"id": 1363433584279891970, "id_str": "1363433584279891970", "name": "John Cairncross", "screen_name": "JohnCairncross6", "location": "Cardiff, Wales", "description": "standby, standby.", "url": null, "entities": {"description": {"urls": []}}, "protected": false, "followers_count": 2, "friends_count": 12, "listed_count": 0, "created_at": "Sun Feb 21 10:22:08 +0000 2021", "favourites_count": 1, "utc_offset": null, "time_zone": null, "geo_enabled": false, "verified": false, "statuses_count": 10, "lang": null, "contributors_enabled": false, "is_translator": false, "is_translation_enabled": false, "profile_background_color": "F5F8FA", "profile_background_image_url": null, "profile_background_image_url_https": null, "profile_background_tile": false, "profile_image_url": "http://abs.twimg.com/sticky/default_profile_images/default_profile_normal.png", "profile_image_url_https": "https://abs.twimg.com/sticky/default_profile_images/default_profile_normal.png", "profile_link_color": "1DA1F2", "profile_sidebar_border_color": "C0DEED", "profile_sidebar_fill_color": "DDEEF6", "profile_text_color": "333333", "profile_use_background_image": true, "has_extended_profile": true, "default_profile": true, "default_profile_image": true, "following": false, "follow_request_sent": false, "notifications": false, "translator_type": "none", "withheld_in_countries": []}, "geo": null, "coordinates": null, "place": null, "contributors": null, "is_quote_status": false, "retweet_count": 0, "favorite_count": 0, "favorited": false, "retweeted": false, "lang": "en"}
