{"created_at": "Sun Oct 10 00:31:15 +0000 2021", "id": 1446996714531999757, "id_str": "1446996714531999757", "full_text": "RT @RepWalle: Water is very underrated issue in Texas. From West Texas, South Texas, East Texas to urban and suburban Texas we all need saf\u2026", "truncated": false, "display_text_range": [0, 140], "entities": {"hashtags": [], "symbols": [], "user_mentions": [{"screen_name": "RepWalle", "name": "Armando Walle", "id": 574185893, "id_str": "574185893", "indices": [3, 12]}], "urls": []}, "metadata": {"iso_language_code": "en", "result_type": "recent"}, "source": "<a href=\"http://twitter.com/download/iphone\" rel=\"nofollow\">Twitter for iPhone</a>", "in_reply_to_status_id": null, "in_reply_to_status_id_str": null, "in_reply_to_user_id": null, "in_reply_to_user_id_str": null, "in_reply_to_screen_name": null, "user": {"id": 215896862, "id_str": "215896862", "name": "#JoyfulBeTheJourney\ud83c\udf39 \ud83d\udc89\ud83d\udc89Get Vaxd\u203c\ufe0f", "screen_name": "tonirtx", "location": "Texas, USA", "description": "Advocate for Public Education & CIVICS. #WeThePeople #VOTE GetRegisteredNow! Stay Informed & always GOTVote! \ud83c\udf08hope&peace (RTs=FYI only)", "url": null, "entities": {"description": {"urls": []}}, "protected": false, "followers_count": 1943, "friends_count": 5003, "listed_count": 230, "created_at": "Mon Nov 15 06:26:47 +0000 2010", "favourites_count": 165447, "utc_offset": null, "time_zone": null, "geo_enabled": false, "verified": false, "statuses_count": 181849, "lang": null, "contributors_enabled": false, "is_translator": false, "is_translation_enabled": false, "profile_background_color": "C0DEED", "profile_background_image_url": "http://abs.twimg.com/images/themes/theme1/bg.png", "profile_background_image_url_https": "https://abs.twimg.com/images/themes/theme1/bg.png", "profile_background_tile": false, "profile_image_url": "http://pbs.twimg.com/profile_images/2197405970/heart_paw_psychodelic_normal.jpg", "profile_image_url_https": "https://pbs.twimg.com/profile_images/2197405970/heart_paw_psychodelic_normal.jpg", "profile_banner_url": "https://pbs.twimg.com/profile_banners/215896862/1527567143", "profile_link_color": "1DA1F2", "profile_sidebar_border_color": "C0DEED", "profile_sidebar_fill_color": "DDEEF6", "profile_text_color": "333333", "profile_use_background_image": true, "has_extended_profile": true, "default_profile": true, "default_profile_image": false, "following": false, "follow_request_sent": false, "notifications": false, "translator_type": "none", "withheld_in_countries": []}, "geo": null, "coordinates": null, "place": null, "contributors": null, "retweeted_status": {"created_at": "Thu Oct 07 18:10:16 +0000 2021", "id": 1446176060882759690, "id_str": "1446176060882759690", "full_text": "Water is very underrated issue in Texas. From West Texas, South Texas, East Texas to urban and suburban Texas we all need safe drinking and waste water service. We also need available water for our agriculture communities. TY to @twdb and your leadership. #txlege https://t.co/AvzdqD11oO", "truncated": false, "display_text_range": [0, 263], "entities": {"hashtags": [{"text": "txlege", "indices": [256, 263]}], "symbols": [], "user_mentions": [{"screen_name": "twdb", "name": "TX Water Dev Board", "id": 916814792, "id_str": "916814792", "indices": [229, 234]}], "urls": [{"url": "https://t.co/AvzdqD11oO", "expanded_url": "https://twitter.com/twdb_brooke/status/1446147116854910979", "display_url": "twitter.com/twdb_brooke/st\u2026", "indices": [264, 287]}]}, "metadata": {"iso_language_code": "en", "result_type": "recent"}, "source": "<a href=\"http://twitter.com/download/iphone\" rel=\"nofollow\">Twitter for iPhone</a>", "in_reply_to_status_id": null, "in_reply_to_status_id_str": null, "in_reply_to_user_id": null, "in_reply_to_user_id_str": null, "in_reply_to_screen_name": null, "user": {"id": 574185893, "id_str": "574185893", "name": "Armando Walle", "screen_name": "RepWalle", "location": "", "description": "Husband, father, brother & compadre. Public servant of TX House Dist. 140. Born on banks of Buffalo Bayou. @UHouston & @UHLAW grad. All Houston sports. Abogado.", "url": "https://t.co/5Nc74XcFc0", "entities": {"url": {"urls": [{"url": "https://t.co/5Nc74XcFc0", "expanded_url": "http://armandowalle.com", "display_url": "armandowalle.com", "indices": [0, 23]}]}, "description": {"urls": []}}, "protected": false, "followers_count": 15059, "friends_count": 10657, "listed_count": 286, "created_at": "Tue May 08 04:08:54 +0000 2012", "favourites_count": 19203, "utc_offset": null, "time_zone": null, "geo_enabled": true, "verified": false, "statuses_count": 20881, "lang": null, "contributors_enabled": false, "is_translator": false, "is_translation_enabled": false, "profile_background_color": "C0DEED", "profile_background_image_url": "http://abs.twimg.com/images/themes/theme1/bg.png", "profile_background_image_url_https": "https://abs.twimg.com/images/themes/theme1/bg.png", "profile_background_tile": false, "profile_image_url": "http://pbs.twimg.com/profile_images/2200790192/image_normal.jpg", "profile_image_url_https": "https://pbs.twimg.com/profile_images/2200790192/image_normal.jpg", "profile_banner_url": "https://pbs.twimg.com/profile_banners/574185893/1391880140", "profile_link_color": "0084B4", "profile_sidebar_border_color": "C0DEED", "profile_sidebar_fill_color": "DDEEF6", "profile_text_color": "333333", "profile_use_background_image": true, "has_extended_profile": false, "default_profile": false, "default_profile_image": false, "following": false, "follow_request_sent": false, "notifications": false, "translator_type": "none", "withheld_in_countries": []}, "geo": null, "coordinates": null, "place": {"id": "1c69a67ad480e1b1", "url": "https://api.twitter.com/1.1/geo/id/1c69a67ad480e1b1.json", "place_type": "city", "name": "Houston", "full_name": "Houston, TX", "country_code": "US", "country": "United States", "contained_within": [], "bounding_box": {"type": "Polygon", "coordinates": [[[-95.823268, 29.522325], [-95.069705, 29.522325], [-95.069705, 30.1546646], [-95.823268, 30.1546646]]]}, "attributes": {}}, "contributors": null, "is_quote_status": true, "quoted_status_id": 1446147116854910979, "quoted_status_id_str": "1446147116854910979", "quoted_status": {"created_at": "Thu Oct 07 16:15:15 +0000 2021", "id": 1446147116854910979, "id_str": "1446147116854910979", "full_text": "We approved financial assistance totaling $1,718,672 for water and wastewater system projects.  Great meeting!  @twdb #txlege #txwater #txflood https://t.co/o9a0v5fvK0", "truncated": false, "display_text_range": [0, 143], "entities": {"hashtags": [{"text": "txlege", "indices": [118, 125]}, {"text": "txwater", "indices": [126, 134]}, {"text": "txflood", "indices": [135, 143]}], "symbols": [], "user_mentions": [{"screen_name": "twdb", "name": "TX Water Dev Board", "id": 916814792, "id_str": "916814792", "indices": [112, 117]}], "urls": [{"url": "https://t.co/o9a0v5fvK0", "expanded_url": "https://twitter.com/twdb/status/1446121783040430093", "display_url": "twitter.com/twdb/status/14\u2026", "indices": [144, 167]}]}, "metadata": {"iso_language_code": "en", "result_type": "recent"}, "source": "<a href=\"https://mobile.twitter.com\" rel=\"nofollow\">Twitter Web App</a>", "in_reply_to_status_id": null, "in_reply_to_status_id_str": null, "in_reply_to_user_id": null, "in_reply_to_user_id_str": null, "in_reply_to_screen_name": null, "user": {"id": 978264692136214528, "id_str": "978264692136214528", "name": "Brooke Paup", "screen_name": "twdb_brooke", "location": "", "description": "", "url": null, "entities": {"description": {"urls": []}}, "protected": false, "followers_count": 746, "friends_count": 591, "listed_count": 9, "created_at": "Mon Mar 26 13:37:32 +0000 2018", "favourites_count": 3811, "utc_offset": null, "time_zone": null, "geo_enabled": true, "verified": false, "statuses_count": 2322, "lang": null, "contributors_enabled": false, "is_translator": false, "is_translation_enabled": false, "profile_background_color": "F5F8FA", "profile_background_image_url": null, "profile_background_image_url_https": null, "profile_background_tile": false, "profile_image_url": "http://pbs.twimg.com/profile_images/978265205217026050/iD_a1rY__normal.jpg", "profile_image_url_https": "https://pbs.twimg.com/profile_images/978265205217026050/iD_a1rY__normal.jpg", "profile_banner_url": "https://pbs.twimg.com/profile_banners/978264692136214528/1522071884", "profile_link_color": "1DA1F2", "profile_sidebar_border_color": "C0DEED", "profile_sidebar_fill_color": "DDEEF6", "profile_text_color": "333333", "profile_use_background_image": true, "has_extended_profile": false, "default_profile": true, "default_profile_image": false, "following": false, "follow_request_sent": false, "notifications": false, "translator_type": "none", "withheld_in_countries": []}, "geo": null, "coordinates": null, "place": null, "contributors": null, "is_quote_status": true, "quoted_status_id": 1446121783040430093, "quoted_status_id_str": "1446121783040430093", "retweet_count": 2, "favorite_count": 15, "favorited": false, "retweeted": false, "possibly_sensitive": false, "lang": "en"}, "retweet_count": 3, "favorite_count": 11, "favorited": false, "retweeted": false, "possibly_sensitive": false, "lang": "en"}, "is_quote_status": true, "quoted_status_id": 1446147116854910979, "quoted_status_id_str": "1446147116854910979", "retweet_count": 3, "favorite_count": 0, "favorited": false, "retweeted": false, "lang": "en"}
{"created_at": "Fri Oct 08 22:55:45 +0000 2021", "id": 1446610295019933696, "id_str": "1446610295019933696", "full_text": "RT @RepWalle: Water is very underrated issue in Texas. From West Texas, South Texas, East Texas to urban and suburban Texas we all need saf\u2026", "truncated": false, "display_text_range": [0, 140], "entities": {"hashtags": [], "symbols": [], "user_mentions": [{"screen_name": "RepWalle", "name": "Armando Walle", "id": 574185893, "id_str": "574185893", "indices": [3, 12]}], "urls": []}, "metadata": {"iso_language_code": "en", "result_type": "recent"}, "source": "<a href=\"http://twitter.com/download/iphone\" rel=\"nofollow\">Twitter for iPhone</a>", "in_reply_to_status_id": null, "in_reply_to_status_id_str": null, "in_reply_to_user_id": null, "in_reply_to_user_id_str": null, "in_reply_to_screen_name": null, "user": {"id": 125514002, "id_str": "125514002", "name": "Amy Bresnen", "screen_name": "amy_bresnen", "location": "Austin, TX", "description": "BresnenAssociates,Inc.| Attorney, lobbyist, & possibly other descriptions that may yield high unfavorables. But cheer up--you'll like me better in the long run.", "url": null, "entities": {"description": {"urls": []}}, "protected": false, "followers_count": 4243, "friends_count": 2706, "listed_count": 61, "created_at": "Tue Mar 23 01:40:39 +0000 2010", "favourites_count": 51574, "utc_offset": null, "time_zone": null, "geo_enabled": true, "verified": false, "statuses_count": 42270, "lang": null, "contributors_enabled": false, "is_translator": false, "is_translation_enabled": false, "profile_background_color": "C0DEED", "profile_background_image_url": "http://abs.twimg.com/images/themes/theme1/bg.png", "profile_background_image_url_https": "https://abs.twimg.com/images/themes/theme1/bg.png", "profile_background_tile": false, "profile_image_url": "http://pbs.twimg.com/profile_images/1416482930826821642/tEHysjx4_normal.jpg", "profile_image_url_https": "https://pbs.twimg.com/profile_images/1416482930826821642/tEHysjx4_normal.jpg", "profile_banner_url": "https://pbs.twimg.com/profile_banners/125514002/1443270894", "profile_link_color": "B300B3", "profile_sidebar_border_color": "C0DEED", "profile_sidebar_fill_color": "DDEEF6", "profile_text_color": "333333", "profile_use_background_image": true, "has_extended_profile": false, "default_profile": false, "default_profile_image": false, "following": false, "follow_request_sent": false, "notifications": false, "translator_type": "none", "withheld_in_countries": []}, "geo": null, "coordinates": null, "place": null, "contributors": null, "retweeted_status": {"created_at": "Thu Oct 07 18:10:16 +0000 2021", "id": 1446176060882759690, "id_str": "1446176060882759690", "full_text": "Water is very underrated issue in Texas. From West Texas, South Texas, East Texas to urban and suburban Texas we all need safe drinking and waste water service. We also need available water for our agriculture communities. TY to @twdb and your leadership. #txlege https://t.co/AvzdqD11oO", "truncated": false, "display_text_range": [0, 263], "entities": {"hashtags": [{"text": "txlege", "indices": [256, 263]}], "symbols": [], "user_mentions": [{"screen_name": "twdb", "name": "TX Water Dev Board", "id": 916814792, "id_str": "916814792", "indices": [229, 234]}], "urls": [{"url": "https://t.co/AvzdqD11oO", "expanded_url": "https://twitter.com/twdb_brooke/status/1446147116854910979", "display_url": "twitter.com/twdb_brooke/st\u2026", "indices": [264, 287]}]}, "metadata": {"iso_language_code": "en", "result_type": "recent"}, "source": "<a href=\"http://twitter.com/download/iphone\" rel=\"nofollow\">Twitter for iPhone</a>", "in_reply_to_status_id": null, "in_reply_to_status_id_str": null, "in_reply_to_user_id": null, "in_reply_to_user_id_str": null, "in_reply_to_screen_name": null, "user": {"id": 574185893, "id_str": "574185893", "name": "Armando Walle", "screen_name": "RepWalle", "location": "", "description": "Husband, father, brother & compadre. Public servant of TX House Dist. 140. Born on banks of Buffalo Bayou. @UHouston & @UHLAW grad. All Houston sports. Abogado.", "url": "https://t.co/5Nc74XcFc0", "entities": {"url": {"urls": [{"url": "https://t.co/5Nc74XcFc0", "expanded_url": "http://armandowalle.com", "display_url": "armandowalle.com", "indices": [0, 23]}]}, "description": {"urls": []}}, "protected": false, "followers_count": 15059, "friends_count": 10657, "listed_count": 286, "created_at": "Tue May 08 04:08:54 +0000 2012", "favourites_count": 19203, "utc_offset": null, "time_zone": null, "geo_enabled": true, "verified": false, "statuses_count": 20881, "lang": null, "contributors_enabled": false, "is_translator": false, "is_translation_enabled": false, "profile_background_color": "C0DEED", "profile_background_image_url": "http://abs.twimg.com/images/themes/theme1/bg.png", "profile_background_image_url_https": "https://abs.twimg.com/images/themes/theme1/bg.png", "profile_background_tile": false, "profile_image_url": "http://pbs.twimg.com/profile_images/2200790192/image_normal.jpg", "profile_image_url_https": "https://pbs.twimg.com/profile_images/2200790192/image_normal.jpg", "profile_banner_url": "https://pbs.twimg.com/profile_banners/574185893/1391880140", "profile_link_color": "0084B4", "profile_sidebar_border_color": "C0DEED", "profile_sidebar_fill_color": "DDEEF6", "profile_text_color": "333333", "profile_use_background_image": true, "has_extended_profile": false, "default_profile": false, "default_profile_image": false, "following": false, "follow_request_sent": false, "notifications": false, "translator_type": "none", "withheld_in_countries": []}, "geo": null, "coordinates": null, "place": {"id": "1c69a67ad480e1b1", "url": "https://api.twitter.com/1.1/geo/id/1c69a67ad480e1b1.json", "place_type": "city", "name": "Houston", "full_name": "Houston, TX", "country_code": "US", "country": "United States", "contained_within": [], "bounding_box": {"type": "Polygon", "coordinates": [[[-95.823268, 29.522325], [-95.069705, 29.522325], [-95.069705, 30.1546646], [-95.823268, 30.1546646]]]}, "attributes": {}}, "contributors": null, "is_quote_status": true, "quoted_status_id": 1446147116854910979, "quoted_status_id_str": "1446147116854910979", "quoted_status": {"created_at": "Thu Oct 07 16:15:15 +0000 2021", "id": 1446147116854910979, "id_str": "1446147116854910979", "full_text": "We approved financial assistance totaling $1,718,672 for water and wastewater system projects.  Great meeting!  @twdb #txlege #txwater #txflood https://t.co/o9a0v5fvK0", "truncated": false, "display_text_range": [0, 143], "entities": {"hashtags": [{"text": "txlege", "indices": [118, 125]}, {"text": "txwater", "indices": [126, 134]}, {"text": "txflood", "indices": [135, 143]}], "symbols": [], "user_mentions": [{"screen_name": "twdb", "name": "TX Water Dev Board", "id": 916814792, "id_str": "916814792", "indices": [112, 117]}], "urls": [{"url": "https://t.co/o9a0v5fvK0", "expanded_url": "https://twitter.com/twdb/status/1446121783040430093", "display_url": "twitter.com/twdb/status/14\u2026", "indices": [144, 167]}]}, "metadata": {"iso_language_code": "en", "result_type": "recent"}, "source": "<a href=\"https://mobile.twitter.com\" rel=\"nofollow\">Twitter Web App</a>", "in_reply_to_status_id": null, "in_reply_to_status_id_str": null, "in_reply_to_user_id": null, "in_reply_to_user_id_str": null, "in_reply_to_screen_name": null, "user": {"id": 978264692136214528, "id_str": "978264692136214528", "name": "Brooke Paup", "screen_name": "twdb_brooke", "location": "", "description": "", "url": null, "entities": {"description": {"urls": []}}, "protected": false, "followers_count": 746, "friends_count": 591, "listed_count": 9, "created_at": "Mon Mar 26 13:37:32 +0000 2018", "favourites_count": 3811, "utc_offset": null, "time_zone": null, "geo_enabled": true, "verified": false, "statuses_count": 2322, "lang": null, "contributors_enabled": false, "is_translator": false, "is_translation_enabled": false, "profile_background_color": "F5F8FA", "profile_background_image_url": null, "profile_background_image_url_https": null, "profile_background_tile": false, "profile_image_url": "http://pbs.twimg.com/profile_images/978265205217026050/iD_a1rY__normal.jpg", "profile_image_url_https": "https://pbs.twimg.com/profile_images/978265205217026050/iD_a1rY__normal.jpg", "profile_banner_url": "https://pbs.twimg.com/profile_banners/978264692136214528/1522071884", "profile_link_color": "1DA1F2", "profile_sidebar_border_color": "C0DEED", "profile_sidebar_fill_color": "DDEEF6", "profile_text_color": "333333", "profile_use_background_image": true, "has_extended_profile": false, "default_profile": true, "default_profile_image": false, "following": false, "follow_request_sent": false, "notifications": false, "translator_type": "none", "withheld_in_countries": []}, "geo": null, "coordinates": null, "place": null, "contributors": null, "is_quote_status": true, "quoted_status_id": 1446121783040430093, "quoted_status_id_str": "1446121783040430093", "retweet_count": 2, "favorite_count": 15, "favorited": false, "retweeted": false, "possibly_sensitive": false, "lang": "en"}, "retweet_count": 3, "favorite_count": 11, "favorited": false, "retweeted": false, "possibly_sensitive": false, "lang": "en"}, "is_quote_status": true, "quoted_status_id": 1446147116854910979, "quoted_status_id_str": "1446147116854910979", "retweet_count": 3, "favorite_count": 0, "favorited": false, "retweeted": false, "lang": "en"}
{"created_at": "Thu Oct 07 18:15:57 +0000 2021", "id": 1446177490590912514, "id_str": "1446177490590912514", "full_text": "RT @RepWalle: Water is very underrated issue in Texas. From West Texas, South Texas, East Texas to urban and suburban Texas we all need saf\u2026", "truncated": false, "display_text_range": [0, 140], "entities": {"hashtags": [], "symbols": [], "user_mentions": [{"screen_name": "RepWalle", "name": "Armando Walle", "id": 574185893, "id_str": "574185893", "indices": [3, 12]}], "urls": []}, "metadata": {"iso_language_code": "en", "result_type": "recent"}, "source": "<a href=\"http://twitter.com/download/iphone\" rel=\"nofollow\">Twitter for iPhone</a>", "in_reply_to_status_id": null, "in_reply_to_status_id_str": null, "in_reply_to_user_id": null, "in_reply_to_user_id_str": null, "in_reply_to_screen_name": null, "user": {"id": 322846155, "id_str": "322846155", "name": "The Texas Water Journal", "screen_name": "TxWaterJournal", "location": "Texas, USA", "description": "A 501(c)3 peer-reviewed journal devoted to Texas water resources management, research & policy integrating science, engineering, law & other disciplines.", "url": "https://t.co/Ax8ALR4HOr", "entities": {"url": {"urls": [{"url": "https://t.co/Ax8ALR4HOr", "expanded_url": "http://texaswaterjournal.org", "display_url": "texaswaterjournal.org", "indices": [0, 23]}]}, "description": {"urls": []}}, "protected": false, "followers_count": 3282, "friends_count": 280, "listed_count": 99, "created_at": "Thu Jun 23 20:57:16 +0000 2011", "favourites_count": 300, "utc_offset": null, "time_zone": null, "geo_enabled": false, "verified": false, "statuses_count": 7978, "lang": null, "contributors_enabled": false, "is_translator": false, "is_translation_enabled": false, "profile_background_color": "C0DEED", "profile_background_image_url": "http://abs.twimg.com/images/themes/theme1/bg.png", "profile_background_image_url_https": "https://abs.twimg.com/images/themes/theme1/bg.png", "profile_background_tile": false, "profile_image_url": "http://pbs.twimg.com/profile_images/966336946372055041/LamXk7aF_normal.jpg", "profile_image_url_https": "https://pbs.twimg.com/profile_images/966336946372055041/LamXk7aF_normal.jpg", "profile_banner_url": "https://pbs.twimg.com/profile_banners/322846155/1396468875", "profile_link_color": "1DA1F2", "profile_sidebar_border_color": "C0DEED", "profile_sidebar_fill_color": "DDEEF6", "profile_text_color": "333333", "profile_use_background_image": true, "has_extended_profile": true, "default_profile": true, "default_profile_image": false, "following": false, "follow_request_sent": false, "notifications": false, "translator_type": "none", "withheld_in_countries": []}, "geo": null, "coordinates": null, "place": null, "contributors": null, "retweeted_status": {"created_at": "Thu Oct 07 18:10:16 +0000 2021", "id": 1446176060882759690, "id_str": "1446176060882759690", "full_text": "Water is very underrated issue in Texas. From West Texas, South Texas, East Texas to urban and suburban Texas we all need safe drinking and waste water service. We also need available water for our agriculture communities. TY to @twdb and your leadership. #txlege https://t.co/AvzdqD11oO", "truncated": false, "display_text_range": [0, 263], "entities": {"hashtags": [{"text": "txlege", "indices": [256, 263]}], "symbols": [], "user_mentions": [{"screen_name": "twdb", "name": "TX Water Dev Board", "id": 916814792, "id_str": "916814792", "indices": [229, 234]}], "urls": [{"url": "https://t.co/AvzdqD11oO", "expanded_url": "https://twitter.com/twdb_brooke/status/1446147116854910979", "display_url": "twitter.com/twdb_brooke/st\u2026", "indices": [264, 287]}]}, "metadata": {"iso_language_code": "en", "result_type": "recent"}, "source": "<a href=\"http://twitter.com/download/iphone\" rel=\"nofollow\">Twitter for iPhone</a>", "in_reply_to_status_id": null, "in_reply_to_status_id_str": null, "in_reply_to_user_id": null, "in_reply_to_user_id_str": null, "in_reply_to_screen_name": null, "user": {"id": 574185893, "id_str": "574185893", "name": "Armando Walle", "screen_name": "RepWalle", "location": "", "description": "Husband, father, brother & compadre. Public servant of TX House Dist. 140. Born on banks of Buffalo Bayou. @UHouston & @UHLAW grad. All Houston sports. Abogado.", "url": "https://t.co/5Nc74XcFc0", "entities": {"url": {"urls": [{"url": "https://t.co/5Nc74XcFc0", "expanded_url": "http://armandowalle.com", "display_url": "armandowalle.com", "indices": [0, 23]}]}, "description": {"urls": []}}, "protected": false, "followers_count": 15059, "friends_count": 10657, "listed_count": 286, "created_at": "Tue May 08 04:08:54 +0000 2012", "favourites_count": 19203, "utc_offset": null, "time_zone": null, "geo_enabled": true, "verified": false, "statuses_count": 20881, "lang": null, "contributors_enabled": false, "is_translator": false, "is_translation_enabled": false, "profile_background_color": "C0DEED", "profile_background_image_url": "http://abs.twimg.com/images/themes/theme1/bg.png", "profile_background_image_url_https": "https://abs.twimg.com/images/themes/theme1/bg.png", "profile_background_tile": false, "profile_image_url": "http://pbs.twimg.com/profile_images/2200790192/image_normal.jpg", "profile_image_url_https": "https://pbs.twimg.com/profile_images/2200790192/image_normal.jpg", "profile_banner_url": "https://pbs.twimg.com/profile_banners/574185893/1391880140", "profile_link_color": "0084B4", "profile_sidebar_border_color": "C0DEED", "profile_sidebar_fill_color": "DDEEF6", "profile_text_color": "333333", "profile_use_background_image": true, "has_extended_profile": false, "default_profile": false, "default_profile_image": false, "following": false, "follow_request_sent": false, "notifications": false, "translator_type": "none", "withheld_in_countries": []}, "geo": null, "coordinates": null, "place": {"id": "1c69a67ad480e1b1", "url": "https://api.twitter.com/1.1/geo/id/1c69a67ad480e1b1.json", "place_type": "city", "name": "Houston", "full_name": "Houston, TX", "country_code": "US", "country": "United States", "contained_within": [], "bounding_box": {"type": "Polygon", "coordinates": [[[-95.823268, 29.522325], [-95.069705, 29.522325], [-95.069705, 30.1546646], [-95.823268, 30.1546646]]]}, "attributes": {}}, "contributors": null, "is_quote_status": true, "quoted_status_id": 1446147116854910979, "quoted_status_id_str": "1446147116854910979", "quoted_status": {"created_at": "Thu Oct 07 16:15:15 +0000 2021", "id": 1446147116854910979, "id_str": "1446147116854910979", "full_text": "We approved financial assistance totaling $1,718,672 for water and wastewater system projects.  Great meeting!  @twdb #txlege #txwater #txflood https://t.co/o9a0v5fvK0", "truncated": false, "display_text_range": [0, 143], "entities": {"hashtags": [{"text": "txlege", "indices": [118, 125]}, {"text": "txwater", "indices": [126, 134]}, {"text": "txflood", "indices": [135, 143]}], "symbols": [], "user_mentions": [{"screen_name": "twdb", "name": "TX Water Dev Board", "id": 916814792, "id_str": "916814792", "indices": [112, 117]}], "urls": [{"url": "https://t.co/o9a0v5fvK0", "expanded_url": "https://twitter.com/twdb/status/1446121783040430093", "display_url": "twitter.com/twdb/status/14\u2026", "indices": [144, 167]}]}, "metadata": {"iso_language_code": "en", "result_type": "recent"}, "source": "<a href=\"https://mobile.twitter.com\" rel=\"nofollow\">Twitter Web App</a>", "in_reply_to_status_id": null, "in_reply_to_status_id_str": null, "in_reply_to_user_id": null, "in_reply_to_user_id_str": null, "in_reply_to_screen_name": null, "user": {"id": 978264692136214528, "id_str": "978264692136214528", "name": "Brooke Paup", "screen_name": "twdb_brooke", "location": "", "description": "", "url": null, "entities": {"description": {"urls": []}}, "protected": false, "followers_count": 746, "friends_count": 591, "listed_count": 9, "created_at": "Mon Mar 26 13:37:32 +0000 2018", "favourites_count": 3811, "utc_offset": null, "time_zone": null, "geo_enabled": true, "verified": false, "statuses_count": 2322, "lang": null, "contributors_enabled": false, "is_translator": false, "is_translation_enabled": false, "profile_background_color": "F5F8FA", "profile_background_image_url": null, "profile_background_image_url_https": null, "profile_background_tile": false, "profile_image_url": "http://pbs.twimg.com/profile_images/978265205217026050/iD_a1rY__normal.jpg", "profile_image_url_https": "https://pbs.twimg.com/profile_images/978265205217026050/iD_a1rY__normal.jpg", "profile_banner_url": "https://pbs.twimg.com/profile_banners/978264692136214528/1522071884", "profile_link_color": "1DA1F2", "profile_sidebar_border_color": "C0DEED", "profile_sidebar_fill_color": "DDEEF6", "profile_text_color": "333333", "profile_use_background_image": true, "has_extended_profile": false, "default_profile": true, "default_profile_image": false, "following": false, "follow_request_sent": false, "notifications": false, "translator_type": "none", "withheld_in_countries": []}, "geo": null, "coordinates": null, "place": null, "contributors": null, "is_quote_status": true, "quoted_status_id": 1446121783040430093, "quoted_status_id_str": "1446121783040430093", "retweet_count": 2, "favorite_count": 15, "favorited": false, "retweeted": false, "possibly_sensitive": false, "lang": "en"}, "retweet_count": 3, "favorite_count": 11, "favorited": false, "retweeted": false, "possibly_sensitive": false, "lang": "en"}, "is_quote_status": true, "quoted_status_id": 1446147116854910979, "quoted_status_id_str": "1446147116854910979", "retweet_count": 3, "favorite_count": 0, "favorited": false, "retweeted": false, "lang": "en"}
{"created_at": "Thu Oct 07 18:10:16 +0000 2021", "id": 1446176060882759690, "id_str": "1446176060882759690", "full_text": "Water is very underrated issue in Texas. From West Texas, South Texas, East Texas to urban and suburban Texas we all need safe drinking and waste water service. We also need available water for our agriculture communities. TY to @twdb and your leadership. #txlege https://t.co/AvzdqD11oO", "truncated": false, "display_text_range": [0, 263], "entities": {"hashtags": [{"text": "txlege", "indices": [256, 263]}], "symbols": [], "user_mentions": [{"screen_name": "twdb", "name": "TX Water Dev Board", "id": 916814792, "id_str": "916814792", "indices": [229, 234]}], "urls": [{"url": "https://t.co/AvzdqD11oO", "expanded_url": "https://twitter.com/twdb_brooke/status/1446147116854910979", "display_url": "twitter.com/twdb_brooke/st\u2026", "indices": [264, 287]}]}, "metadata": {"iso_language_code": "en", "result_type": "recent"}, "source": "<a href=\"http://twitter.com/download/iphone\" rel=\"nofollow\">Twitter for iPhone</a>", "in_reply_to_status_id": null, "in_reply_to_status_id_str": null, "in_reply_to_user_id": null, "in_reply_to_user_id_str": null, "in_reply_to_screen_name": null, "user": {"id": 574185893, "id_str": "574185893", "name": "Armando Walle", "screen_name": "RepWalle", "location": "", "description": "Husband, father, brother & compadre. Public servant of TX House Dist. 140. Born on banks of Buffalo Bayou. @UHouston & @UHLAW grad. All Houston sports. Abogado.", "url": "https://t.co/5Nc74XcFc0", "entities": {"url": {"urls": [{"url": "https://t.co/5Nc74XcFc0", "expanded_url": "http://armandowalle.com", "display_url": "armandowalle.com", "indices": [0, 23]}]}, "description": {"urls": []}}, "protected": false, "followers_count": 15059, "friends_count": 10657, "listed_count": 286, "created_at": "Tue May 08 04:08:54 +0000 2012", "favourites_count": 19203, "utc_offset": null, "time_zone": null, "geo_enabled": true, "verified": false, "statuses_count": 20881, "lang": null, "contributors_enabled": false, "is_translator": false, "is_translation_enabled": false, "profile_background_color": "C0DEED", "profile_background_image_url": "http://abs.twimg.com/images/themes/theme1/bg.png", "profile_background_image_url_https": "https://abs.twimg.com/images/themes/theme1/bg.png", "profile_background_tile": false, "profile_image_url": "http://pbs.twimg.com/profile_images/2200790192/image_normal.jpg", "profile_image_url_https": "https://pbs.twimg.com/profile_images/2200790192/image_normal.jpg", "profile_banner_url": "https://pbs.twimg.com/profile_banners/574185893/1391880140", "profile_link_color": "0084B4", "profile_sidebar_border_color": "C0DEED", "profile_sidebar_fill_color": "DDEEF6", "profile_text_color": "333333", "profile_use_background_image": true, "has_extended_profile": false, "default_profile": false, "default_profile_image": false, "following": false, "follow_request_sent": false, "notifications": false, "translator_type": "none", "withheld_in_countries": []}, "geo": null, "coordinates": null, "place": {"id": "1c69a67ad480e1b1", "url": "https://api.twitter.com/1.1/geo/id/1c69a67ad480e1b1.json", "place_type": "city", "name": "Houston", "full_name": "Houston, TX", "country_code": "US", "country": "United States", "contained_within": [], "bounding_box": {"type": "Polygon", "coordinates": [[[-95.823268, 29.522325], [-95.069705, 29.522325], [-95.069705, 30.1546646], [-95.823268, 30.1546646]]]}, "attributes": {}}, "contributors": null, "is_quote_status": true, "quoted_status_id": 1446147116854910979, "quoted_status_id_str": "1446147116854910979", "quoted_status": {"created_at": "Thu Oct 07 16:15:15 +0000 2021", "id": 1446147116854910979, "id_str": "1446147116854910979", "full_text": "We approved financial assistance totaling $1,718,672 for water and wastewater system projects.  Great meeting!  @twdb #txlege #txwater #txflood https://t.co/o9a0v5fvK0", "truncated": false, "display_text_range": [0, 143], "entities": {"hashtags": [{"text": "txlege", "indices": [118, 125]}, {"text": "txwater", "indices": [126, 134]}, {"text": "txflood", "indices": [135, 143]}], "symbols": [], "user_mentions": [{"screen_name": "twdb", "name": "TX Water Dev Board", "id": 916814792, "id_str": "916814792", "indices": [112, 117]}], "urls": [{"url": "https://t.co/o9a0v5fvK0", "expanded_url": "https://twitter.com/twdb/status/1446121783040430093", "display_url": "twitter.com/twdb/status/14\u2026", "indices": [144, 167]}]}, "metadata": {"iso_language_code": "en", "result_type": "recent"}, "source": "<a href=\"https://mobile.twitter.com\" rel=\"nofollow\">Twitter Web App</a>", "in_reply_to_status_id": null, "in_reply_to_status_id_str": null, "in_reply_to_user_id": null, "in_reply_to_user_id_str": null, "in_reply_to_screen_name": null, "user": {"id": 978264692136214528, "id_str": "978264692136214528", "name": "Brooke Paup", "screen_name": "twdb_brooke", "location": "", "description": "", "url": null, "entities": {"description": {"urls": []}}, "protected": false, "followers_count": 746, "friends_count": 591, "listed_count": 9, "created_at": "Mon Mar 26 13:37:32 +0000 2018", "favourites_count": 3811, "utc_offset": null, "time_zone": null, "geo_enabled": true, "verified": false, "statuses_count": 2322, "lang": null, "contributors_enabled": false, "is_translator": false, "is_translation_enabled": false, "profile_background_color": "F5F8FA", "profile_background_image_url": null, "profile_background_image_url_https": null, "profile_background_tile": false, "profile_image_url": "http://pbs.twimg.com/profile_images/978265205217026050/iD_a1rY__normal.jpg", "profile_image_url_https": "https://pbs.twimg.com/profile_images/978265205217026050/iD_a1rY__normal.jpg", "profile_banner_url": "https://pbs.twimg.com/profile_banners/978264692136214528/1522071884", "profile_link_color": "1DA1F2", "profile_sidebar_border_color": "C0DEED", "profile_sidebar_fill_color": "DDEEF6", "profile_text_color": "333333", "profile_use_background_image": true, "has_extended_profile": false, "default_profile": true, "default_profile_image": false, "following": false, "follow_request_sent": false, "notifications": false, "translator_type": "none", "withheld_in_countries": []}, "geo": null, "coordinates": null, "place": null, "contributors": null, "is_quote_status": true, "quoted_status_id": 1446121783040430093, "quoted_status_id_str": "1446121783040430093", "retweet_count": 2, "favorite_count": 15, "favorited": false, "retweeted": false, "possibly_sensitive": false, "lang": "en"}, "retweet_count": 3, "favorite_count": 11, "favorited": false, "retweeted": false, "possibly_sensitive": false, "lang": "en"}
