{"created_at": "Sat Oct 09 08:47:07 +0000 2021", "id": 1446759117792628738, "id_str": "1446759117792628738", "full_text": "RT @joanne_bbc: Severn Trent's apologised to parents and their children after reports they were walking through sewage to get to school in\u2026", "truncated": false, "display_text_range": [0, 139], "entities": {"hashtags": [], "symbols": [], "user_mentions": [{"screen_name": "joanne_bbc", "name": "Joanne Pryce Gallacher", "id": 1385247308850372610, "id_str": "1385247308850372610", "indices": [3, 14]}], "urls": []}, "metadata": {"iso_language_code": "en", "result_type": "recent"}, "source": "<a href=\"http://twitter.com/download/iphone\" rel=\"nofollow\">Twitter for iPhone</a>", "in_reply_to_status_id": null, "in_reply_to_status_id_str": null, "in_reply_to_user_id": null, "in_reply_to_user_id_str": null, "in_reply_to_screen_name": null, "user": {"id": 1424679423924649989, "id_str": "1424679423924649989", "name": "vicky", "screen_name": "vickyc54321", "location": "England, United Kingdom", "description": "", "url": null, "entities": {"description": {"urls": []}}, "protected": false, "followers_count": 67, "friends_count": 387, "listed_count": 0, "created_at": "Mon Aug 09 10:30:56 +0000 2021", "favourites_count": 3905, "utc_offset": null, "time_zone": null, "geo_enabled": false, "verified": false, "statuses_count": 942, "lang": null, "contributors_enabled": false, "is_translator": false, "is_translation_enabled": false, "profile_background_color": "F5F8FA", "profile_background_image_url": null, "profile_background_image_url_https": null, "profile_background_tile": false, "profile_image_url": "http://pbs.twimg.com/profile_images/1426103737165262850/X_pvcXJ-_normal.jpg", "profile_image_url_https": "https://pbs.twimg.com/profile_images/1426103737165262850/X_pvcXJ-_normal.jpg", "profile_banner_url": "https://pbs.twimg.com/profile_banners/1424679423924649989/1628844705", "profile_link_color": "1DA1F2", "profile_sidebar_border_color": "C0DEED", "profile_sidebar_fill_color": "DDEEF6", "profile_text_color": "333333", "profile_use_background_image": true, "has_extended_profile": true, "default_profile": true, "default_profile_image": false, "following": false, "follow_request_sent": false, "notifications": false, "translator_type": "none", "withheld_in_countries": []}, "geo": null, "coordinates": null, "place": null, "contributors": null, "retweeted_status": {"created_at": "Fri Oct 08 11:50:11 +0000 2021", "id": 1446442796949426198, "id_str": "1446442796949426198", "full_text": "Severn Trent's apologised to parents and their children after reports they were walking through sewage to get to school in the Longden Coleham area of Shrewsbury.\nThe water company said the issue's been caused by a blocked sewer and they have workers on site dealing with it", "truncated": false, "display_text_range": [0, 274], "entities": {"hashtags": [], "symbols": [], "user_mentions": [], "urls": []}, "metadata": {"iso_language_code": "en", "result_type": "recent"}, "source": "<a href=\"https://mobile.twitter.com\" rel=\"nofollow\">Twitter Web App</a>", "in_reply_to_status_id": null, "in_reply_to_status_id_str": null, "in_reply_to_user_id": null, "in_reply_to_user_id_str": null, "in_reply_to_screen_name": null, "user": {"id": 1385247308850372610, "id_str": "1385247308850372610", "name": "Joanne Pryce Gallacher", "screen_name": "joanne_bbc", "location": "", "description": "Political reporter for BBC. Welsh.", "url": null, "entities": {"description": {"urls": []}}, "protected": false, "followers_count": 623, "friends_count": 596, "listed_count": 9, "created_at": "Thu Apr 22 15:01:29 +0000 2021", "favourites_count": 856, "utc_offset": null, "time_zone": null, "geo_enabled": false, "verified": false, "statuses_count": 1333, "lang": null, "contributors_enabled": false, "is_translator": false, "is_translation_enabled": false, "profile_background_color": "F5F8FA", "profile_background_image_url": null, "profile_background_image_url_https": null, "profile_background_tile": false, "profile_image_url": "http://pbs.twimg.com/profile_images/1385252715610230786/liORl61a_normal.jpg", "profile_image_url_https": "https://pbs.twimg.com/profile_images/1385252715610230786/liORl61a_normal.jpg", "profile_banner_url": "https://pbs.twimg.com/profile_banners/1385247308850372610/1631355493", "profile_link_color": "1DA1F2", "profile_sidebar_border_color": "C0DEED", "profile_sidebar_fill_color": "DDEEF6", "profile_text_color": "333333", "profile_use_background_image": true, "has_extended_profile": true, "default_profile": true, "default_profile_image": false, "following": false, "follow_request_sent": false, "notifications": false, "translator_type": "none", "withheld_in_countries": []}, "geo": null, "coordinates": null, "place": null, "contributors": null, "is_quote_status": false, "retweet_count": 7, "favorite_count": 8, "favorited": false, "retweeted": false, "lang": "en"}, "is_quote_status": false, "retweet_count": 7, "favorite_count": 0, "favorited": false, "retweeted": false, "lang": "en"}
{"created_at": "Fri Oct 08 21:50:38 +0000 2021", "id": 1446593908255899654, "id_str": "1446593908255899654", "full_text": "RT @joanne_bbc: Severn Trent's apologised to parents and their children after reports they were walking through sewage to get to school in\u2026", "truncated": false, "display_text_range": [0, 139], "entities": {"hashtags": [], "symbols": [], "user_mentions": [{"screen_name": "joanne_bbc", "name": "Joanne Pryce Gallacher", "id": 1385247308850372610, "id_str": "1385247308850372610", "indices": [3, 14]}], "urls": []}, "metadata": {"iso_language_code": "en", "result_type": "recent"}, "source": "<a href=\"http://twitter.com/download/android\" rel=\"nofollow\">Twitter for Android</a>", "in_reply_to_status_id": null, "in_reply_to_status_id_str": null, "in_reply_to_user_id": null, "in_reply_to_user_id_str": null, "in_reply_to_screen_name": null, "user": {"id": 156254385, "id_str": "156254385", "name": "EcoTinaUK \ud83c\udf0d", "screen_name": "EcoTinaUK", "location": "Shrewsbury, UK", "description": "Reporting on anything & everything to do with the Climate & Ecological Emergency around the World in the hope that we can find an answer before it's too late.", "url": null, "entities": {"description": {"urls": []}}, "protected": false, "followers_count": 5614, "friends_count": 5090, "listed_count": 102, "created_at": "Wed Jun 16 12:33:45 +0000 2010", "favourites_count": 4476, "utc_offset": null, "time_zone": null, "geo_enabled": true, "verified": false, "statuses_count": 12851, "lang": null, "contributors_enabled": false, "is_translator": false, "is_translation_enabled": false, "profile_background_color": "EDECE9", "profile_background_image_url": "http://abs.twimg.com/images/themes/theme3/bg.gif", "profile_background_image_url_https": "https://abs.twimg.com/images/themes/theme3/bg.gif", "profile_background_tile": false, "profile_image_url": "http://pbs.twimg.com/profile_images/1304049032529154049/dYC80sOa_normal.jpg", "profile_image_url_https": "https://pbs.twimg.com/profile_images/1304049032529154049/dYC80sOa_normal.jpg", "profile_banner_url": "https://pbs.twimg.com/profile_banners/156254385/1632305636", "profile_link_color": "088253", "profile_sidebar_border_color": "D3D2CF", "profile_sidebar_fill_color": "E3E2DE", "profile_text_color": "634047", "profile_use_background_image": true, "has_extended_profile": true, "default_profile": false, "default_profile_image": false, "following": false, "follow_request_sent": false, "notifications": false, "translator_type": "none", "withheld_in_countries": []}, "geo": null, "coordinates": null, "place": null, "contributors": null, "retweeted_status": {"created_at": "Fri Oct 08 11:50:11 +0000 2021", "id": 1446442796949426198, "id_str": "1446442796949426198", "full_text": "Severn Trent's apologised to parents and their children after reports they were walking through sewage to get to school in the Longden Coleham area of Shrewsbury.\nThe water company said the issue's been caused by a blocked sewer and they have workers on site dealing with it", "truncated": false, "display_text_range": [0, 274], "entities": {"hashtags": [], "symbols": [], "user_mentions": [], "urls": []}, "metadata": {"iso_language_code": "en", "result_type": "recent"}, "source": "<a href=\"https://mobile.twitter.com\" rel=\"nofollow\">Twitter Web App</a>", "in_reply_to_status_id": null, "in_reply_to_status_id_str": null, "in_reply_to_user_id": null, "in_reply_to_user_id_str": null, "in_reply_to_screen_name": null, "user": {"id": 1385247308850372610, "id_str": "1385247308850372610", "name": "Joanne Pryce Gallacher", "screen_name": "joanne_bbc", "location": "", "description": "Political reporter for BBC. Welsh.", "url": null, "entities": {"description": {"urls": []}}, "protected": false, "followers_count": 623, "friends_count": 596, "listed_count": 9, "created_at": "Thu Apr 22 15:01:29 +0000 2021", "favourites_count": 856, "utc_offset": null, "time_zone": null, "geo_enabled": false, "verified": false, "statuses_count": 1333, "lang": null, "contributors_enabled": false, "is_translator": false, "is_translation_enabled": false, "profile_background_color": "F5F8FA", "profile_background_image_url": null, "profile_background_image_url_https": null, "profile_background_tile": false, "profile_image_url": "http://pbs.twimg.com/profile_images/1385252715610230786/liORl61a_normal.jpg", "profile_image_url_https": "https://pbs.twimg.com/profile_images/1385252715610230786/liORl61a_normal.jpg", "profile_banner_url": "https://pbs.twimg.com/profile_banners/1385247308850372610/1631355493", "profile_link_color": "1DA1F2", "profile_sidebar_border_color": "C0DEED", "profile_sidebar_fill_color": "DDEEF6", "profile_text_color": "333333", "profile_use_background_image": true, "has_extended_profile": true, "default_profile": true, "default_profile_image": false, "following": false, "follow_request_sent": false, "notifications": false, "translator_type": "none", "withheld_in_countries": []}, "geo": null, "coordinates": null, "place": null, "contributors": null, "is_quote_status": false, "retweet_count": 7, "favorite_count": 8, "favorited": false, "retweeted": false, "lang": "en"}, "is_quote_status": false, "retweet_count": 7, "favorite_count": 0, "favorited": false, "retweeted": false, "lang": "en"}
{"created_at": "Fri Oct 08 17:56:23 +0000 2021", "id": 1446534954561720324, "id_str": "1446534954561720324", "full_text": "RT @joanne_bbc: Severn Trent's apologised to parents and their children after reports they were walking through sewage to get to school in\u2026", "truncated": false, "display_text_range": [0, 139], "entities": {"hashtags": [], "symbols": [], "user_mentions": [{"screen_name": "joanne_bbc", "name": "Joanne Pryce Gallacher", "id": 1385247308850372610, "id_str": "1385247308850372610", "indices": [3, 14]}], "urls": []}, "metadata": {"iso_language_code": "en", "result_type": "recent"}, "source": "<a href=\"https://mobile.twitter.com\" rel=\"nofollow\">Twitter Web App</a>", "in_reply_to_status_id": null, "in_reply_to_status_id_str": null, "in_reply_to_user_id": null, "in_reply_to_user_id_str": null, "in_reply_to_screen_name": null, "user": {"id": 2637278422, "id_str": "2637278422", "name": "Chris Nangle", "screen_name": "howlin32", "location": "shropshire", "description": "Eco friendly street furniture and public seating specialists.", "url": "http://t.co/6lRONuWxtp", "entities": {"url": {"urls": [{"url": "http://t.co/6lRONuWxtp", "expanded_url": "http://www.chrisnanglefurniture.co.uk/", "display_url": "chrisnanglefurniture.co.uk", "indices": [0, 22]}]}, "description": {"urls": []}}, "protected": false, "followers_count": 2166, "friends_count": 2972, "listed_count": 68, "created_at": "Tue Jun 24 10:06:06 +0000 2014", "favourites_count": 95888, "utc_offset": null, "time_zone": null, "geo_enabled": false, "verified": false, "statuses_count": 28006, "lang": null, "contributors_enabled": false, "is_translator": false, "is_translation_enabled": false, "profile_background_color": "C0DEED", "profile_background_image_url": "http://abs.twimg.com/images/themes/theme1/bg.png", "profile_background_image_url_https": "https://abs.twimg.com/images/themes/theme1/bg.png", "profile_background_tile": false, "profile_image_url": "http://pbs.twimg.com/profile_images/1086263810154024960/AYfcQn-0_normal.jpg", "profile_image_url_https": "https://pbs.twimg.com/profile_images/1086263810154024960/AYfcQn-0_normal.jpg", "profile_banner_url": "https://pbs.twimg.com/profile_banners/2637278422/1547820373", "profile_link_color": "1DA1F2", "profile_sidebar_border_color": "C0DEED", "profile_sidebar_fill_color": "DDEEF6", "profile_text_color": "333333", "profile_use_background_image": true, "has_extended_profile": false, "default_profile": true, "default_profile_image": false, "following": false, "follow_request_sent": false, "notifications": false, "translator_type": "none", "withheld_in_countries": []}, "geo": null, "coordinates": null, "place": null, "contributors": null, "retweeted_status": {"created_at": "Fri Oct 08 11:50:11 +0000 2021", "id": 1446442796949426198, "id_str": "1446442796949426198", "full_text": "Severn Trent's apologised to parents and their children after reports they were walking through sewage to get to school in the Longden Coleham area of Shrewsbury.\nThe water company said the issue's been caused by a blocked sewer and they have workers on site dealing with it", "truncated": false, "display_text_range": [0, 274], "entities": {"hashtags": [], "symbols": [], "user_mentions": [], "urls": []}, "metadata": {"iso_language_code": "en", "result_type": "recent"}, "source": "<a href=\"https://mobile.twitter.com\" rel=\"nofollow\">Twitter Web App</a>", "in_reply_to_status_id": null, "in_reply_to_status_id_str": null, "in_reply_to_user_id": null, "in_reply_to_user_id_str": null, "in_reply_to_screen_name": null, "user": {"id": 1385247308850372610, "id_str": "1385247308850372610", "name": "Joanne Pryce Gallacher", "screen_name": "joanne_bbc", "location": "", "description": "Political reporter for BBC. Welsh.", "url": null, "entities": {"description": {"urls": []}}, "protected": false, "followers_count": 623, "friends_count": 596, "listed_count": 9, "created_at": "Thu Apr 22 15:01:29 +0000 2021", "favourites_count": 856, "utc_offset": null, "time_zone": null, "geo_enabled": false, "verified": false, "statuses_count": 1333, "lang": null, "contributors_enabled": false, "is_translator": false, "is_translation_enabled": false, "profile_background_color": "F5F8FA", "profile_background_image_url": null, "profile_background_image_url_https": null, "profile_background_tile": false, "profile_image_url": "http://pbs.twimg.com/profile_images/1385252715610230786/liORl61a_normal.jpg", "profile_image_url_https": "https://pbs.twimg.com/profile_images/1385252715610230786/liORl61a_normal.jpg", "profile_banner_url": "https://pbs.twimg.com/profile_banners/1385247308850372610/1631355493", "profile_link_color": "1DA1F2", "profile_sidebar_border_color": "C0DEED", "profile_sidebar_fill_color": "DDEEF6", "profile_text_color": "333333", "profile_use_background_image": true, "has_extended_profile": true, "default_profile": true, "default_profile_image": false, "following": false, "follow_request_sent": false, "notifications": false, "translator_type": "none", "withheld_in_countries": []}, "geo": null, "coordinates": null, "place": null, "contributors": null, "is_quote_status": false, "retweet_count": 7, "favorite_count": 8, "favorited": false, "retweeted": false, "lang": "en"}, "is_quote_status": false, "retweet_count": 7, "favorite_count": 0, "favorited": false, "retweeted": false, "lang": "en"}
{"created_at": "Fri Oct 08 16:51:51 +0000 2021", "id": 1446518717291143185, "id_str": "1446518717291143185", "full_text": "RT @joanne_bbc: Severn Trent's apologised to parents and their children after reports they were walking through sewage to get to school in\u2026", "truncated": false, "display_text_range": [0, 139], "entities": {"hashtags": [], "symbols": [], "user_mentions": [{"screen_name": "joanne_bbc", "name": "Joanne Pryce Gallacher", "id": 1385247308850372610, "id_str": "1385247308850372610", "indices": [3, 14]}], "urls": []}, "metadata": {"iso_language_code": "en", "result_type": "recent"}, "source": "<a href=\"https://mobile.twitter.com\" rel=\"nofollow\">Twitter Web App</a>", "in_reply_to_status_id": null, "in_reply_to_status_id_str": null, "in_reply_to_user_id": null, "in_reply_to_user_id_str": null, "in_reply_to_screen_name": null, "user": {"id": 1290211313541668865, "id_str": "1290211313541668865", "name": "South Shropshire Climate Action", "screen_name": "ShropClimate", "location": "", "description": "Sharing a Climate Action Plan for the Ludlow Constituency to achieve net-zero by 2030. Get involved by joining a working group. More details on our website.", "url": "https://t.co/Am5gTvgYdO", "entities": {"url": {"urls": [{"url": "https://t.co/Am5gTvgYdO", "expanded_url": "https://southshropshireclimateaction.org/", "display_url": "southshropshireclimateaction.org", "indices": [0, 23]}]}, "description": {"urls": []}}, "protected": false, "followers_count": 483, "friends_count": 734, "listed_count": 1, "created_at": "Mon Aug 03 09:02:16 +0000 2020", "favourites_count": 1381, "utc_offset": null, "time_zone": null, "geo_enabled": false, "verified": false, "statuses_count": 1435, "lang": null, "contributors_enabled": false, "is_translator": false, "is_translation_enabled": false, "profile_background_color": "F5F8FA", "profile_background_image_url": null, "profile_background_image_url_https": null, "profile_background_tile": false, "profile_image_url": "http://pbs.twimg.com/profile_images/1359886104120459281/lufEthzV_normal.jpg", "profile_image_url_https": "https://pbs.twimg.com/profile_images/1359886104120459281/lufEthzV_normal.jpg", "profile_banner_url": "https://pbs.twimg.com/profile_banners/1290211313541668865/1601794738", "profile_link_color": "1DA1F2", "profile_sidebar_border_color": "C0DEED", "profile_sidebar_fill_color": "DDEEF6", "profile_text_color": "333333", "profile_use_background_image": true, "has_extended_profile": true, "default_profile": true, "default_profile_image": false, "following": false, "follow_request_sent": false, "notifications": false, "translator_type": "none", "withheld_in_countries": []}, "geo": null, "coordinates": null, "place": null, "contributors": null, "retweeted_status": {"created_at": "Fri Oct 08 11:50:11 +0000 2021", "id": 1446442796949426198, "id_str": "1446442796949426198", "full_text": "Severn Trent's apologised to parents and their children after reports they were walking through sewage to get to school in the Longden Coleham area of Shrewsbury.\nThe water company said the issue's been caused by a blocked sewer and they have workers on site dealing with it", "truncated": false, "display_text_range": [0, 274], "entities": {"hashtags": [], "symbols": [], "user_mentions": [], "urls": []}, "metadata": {"iso_language_code": "en", "result_type": "recent"}, "source": "<a href=\"https://mobile.twitter.com\" rel=\"nofollow\">Twitter Web App</a>", "in_reply_to_status_id": null, "in_reply_to_status_id_str": null, "in_reply_to_user_id": null, "in_reply_to_user_id_str": null, "in_reply_to_screen_name": null, "user": {"id": 1385247308850372610, "id_str": "1385247308850372610", "name": "Joanne Pryce Gallacher", "screen_name": "joanne_bbc", "location": "", "description": "Political reporter for BBC. Welsh.", "url": null, "entities": {"description": {"urls": []}}, "protected": false, "followers_count": 623, "friends_count": 596, "listed_count": 9, "created_at": "Thu Apr 22 15:01:29 +0000 2021", "favourites_count": 856, "utc_offset": null, "time_zone": null, "geo_enabled": false, "verified": false, "statuses_count": 1333, "lang": null, "contributors_enabled": false, "is_translator": false, "is_translation_enabled": false, "profile_background_color": "F5F8FA", "profile_background_image_url": null, "profile_background_image_url_https": null, "profile_background_tile": false, "profile_image_url": "http://pbs.twimg.com/profile_images/1385252715610230786/liORl61a_normal.jpg", "profile_image_url_https": "https://pbs.twimg.com/profile_images/1385252715610230786/liORl61a_normal.jpg", "profile_banner_url": "https://pbs.twimg.com/profile_banners/1385247308850372610/1631355493", "profile_link_color": "1DA1F2", "profile_sidebar_border_color": "C0DEED", "profile_sidebar_fill_color": "DDEEF6", "profile_text_color": "333333", "profile_use_background_image": true, "has_extended_profile": true, "default_profile": true, "default_profile_image": false, "following": false, "follow_request_sent": false, "notifications": false, "translator_type": "none", "withheld_in_countries": []}, "geo": null, "coordinates": null, "place": null, "contributors": null, "is_quote_status": false, "retweet_count": 7, "favorite_count": 8, "favorited": false, "retweeted": false, "lang": "en"}, "is_quote_status": false, "retweet_count": 7, "favorite_count": 0, "favorited": false, "retweeted": false, "lang": "en"}
{"created_at": "Fri Oct 08 16:12:31 +0000 2021", "id": 1446508818846916608, "id_str": "1446508818846916608", "full_text": "RT @joanne_bbc: Severn Trent's apologised to parents and their children after reports they were walking through sewage to get to school in\u2026", "truncated": false, "display_text_range": [0, 139], "entities": {"hashtags": [], "symbols": [], "user_mentions": [{"screen_name": "joanne_bbc", "name": "Joanne Pryce Gallacher", "id": 1385247308850372610, "id_str": "1385247308850372610", "indices": [3, 14]}], "urls": []}, "metadata": {"iso_language_code": "en", "result_type": "recent"}, "source": "<a href=\"http://twitter.com/download/iphone\" rel=\"nofollow\">Twitter for iPhone</a>", "in_reply_to_status_id": null, "in_reply_to_status_id_str": null, "in_reply_to_user_id": null, "in_reply_to_user_id_str": null, "in_reply_to_screen_name": null, "user": {"id": 1095144511, "id_str": "1095144511", "name": "Chris G.", "screen_name": "SupportUKMfg", "location": "Shrewsbury", "description": "Helping #SupportUKMfg. Raising the profile of good news stories and the best twitter accounts. #Apprenticeships #IoT and much, much more.......", "url": null, "entities": {"description": {"urls": []}}, "protected": false, "followers_count": 5875, "friends_count": 6425, "listed_count": 69, "created_at": "Wed Jan 16 12:58:48 +0000 2013", "favourites_count": 19420, "utc_offset": null, "time_zone": null, "geo_enabled": true, "verified": false, "statuses_count": 20420, "lang": null, "contributors_enabled": false, "is_translator": false, "is_translation_enabled": false, "profile_background_color": "9AE4E8", "profile_background_image_url": "http://abs.twimg.com/images/themes/theme16/bg.gif", "profile_background_image_url_https": "https://abs.twimg.com/images/themes/theme16/bg.gif", "profile_background_tile": false, "profile_image_url": "http://pbs.twimg.com/profile_images/1201472684896509952/z-vWw5LW_normal.jpg", "profile_image_url_https": "https://pbs.twimg.com/profile_images/1201472684896509952/z-vWw5LW_normal.jpg", "profile_banner_url": "https://pbs.twimg.com/profile_banners/1095144511/1575288386", "profile_link_color": "0084B4", "profile_sidebar_border_color": "FFFFFF", "profile_sidebar_fill_color": "DDFFCC", "profile_text_color": "333333", "profile_use_background_image": true, "has_extended_profile": true, "default_profile": false, "default_profile_image": false, "following": false, "follow_request_sent": false, "notifications": false, "translator_type": "none", "withheld_in_countries": []}, "geo": null, "coordinates": null, "place": null, "contributors": null, "retweeted_status": {"created_at": "Fri Oct 08 11:50:11 +0000 2021", "id": 1446442796949426198, "id_str": "1446442796949426198", "full_text": "Severn Trent's apologised to parents and their children after reports they were walking through sewage to get to school in the Longden Coleham area of Shrewsbury.\nThe water company said the issue's been caused by a blocked sewer and they have workers on site dealing with it", "truncated": false, "display_text_range": [0, 274], "entities": {"hashtags": [], "symbols": [], "user_mentions": [], "urls": []}, "metadata": {"iso_language_code": "en", "result_type": "recent"}, "source": "<a href=\"https://mobile.twitter.com\" rel=\"nofollow\">Twitter Web App</a>", "in_reply_to_status_id": null, "in_reply_to_status_id_str": null, "in_reply_to_user_id": null, "in_reply_to_user_id_str": null, "in_reply_to_screen_name": null, "user": {"id": 1385247308850372610, "id_str": "1385247308850372610", "name": "Joanne Pryce Gallacher", "screen_name": "joanne_bbc", "location": "", "description": "Political reporter for BBC. Welsh.", "url": null, "entities": {"description": {"urls": []}}, "protected": false, "followers_count": 623, "friends_count": 596, "listed_count": 9, "created_at": "Thu Apr 22 15:01:29 +0000 2021", "favourites_count": 856, "utc_offset": null, "time_zone": null, "geo_enabled": false, "verified": false, "statuses_count": 1333, "lang": null, "contributors_enabled": false, "is_translator": false, "is_translation_enabled": false, "profile_background_color": "F5F8FA", "profile_background_image_url": null, "profile_background_image_url_https": null, "profile_background_tile": false, "profile_image_url": "http://pbs.twimg.com/profile_images/1385252715610230786/liORl61a_normal.jpg", "profile_image_url_https": "https://pbs.twimg.com/profile_images/1385252715610230786/liORl61a_normal.jpg", "profile_banner_url": "https://pbs.twimg.com/profile_banners/1385247308850372610/1631355493", "profile_link_color": "1DA1F2", "profile_sidebar_border_color": "C0DEED", "profile_sidebar_fill_color": "DDEEF6", "profile_text_color": "333333", "profile_use_background_image": true, "has_extended_profile": true, "default_profile": true, "default_profile_image": false, "following": false, "follow_request_sent": false, "notifications": false, "translator_type": "none", "withheld_in_countries": []}, "geo": null, "coordinates": null, "place": null, "contributors": null, "is_quote_status": false, "retweet_count": 7, "favorite_count": 8, "favorited": false, "retweeted": false, "lang": "en"}, "is_quote_status": false, "retweet_count": 7, "favorite_count": 0, "favorited": false, "retweeted": false, "lang": "en"}
{"created_at": "Fri Oct 08 12:45:17 +0000 2021", "id": 1446456665641979906, "id_str": "1446456665641979906", "full_text": "RT @joanne_bbc: Severn Trent's apologised to parents and their children after reports they were walking through sewage to get to school in\u2026", "truncated": false, "display_text_range": [0, 139], "entities": {"hashtags": [], "symbols": [], "user_mentions": [{"screen_name": "joanne_bbc", "name": "Joanne Pryce Gallacher", "id": 1385247308850372610, "id_str": "1385247308850372610", "indices": [3, 14]}], "urls": []}, "metadata": {"iso_language_code": "en", "result_type": "recent"}, "source": "<a href=\"http://twitter.com/download/android\" rel=\"nofollow\">Twitter for Android</a>", "in_reply_to_status_id": null, "in_reply_to_status_id_str": null, "in_reply_to_user_id": null, "in_reply_to_user_id_str": null, "in_reply_to_screen_name": null, "user": {"id": 3213596445, "id_str": "3213596445", "name": "Duncan Jones", "screen_name": "NedClatter", "location": "Shrewsbury, England", "description": "Running, cycling, rugby, health, over 50 fitness, public health, landscape, active travel, community. \ud83c\udff4\udb40\udc67\udb40\udc62\udb40\udc77\udb40\udc6c\udb40\udc73\udb40\udc7f", "url": null, "entities": {"description": {"urls": []}}, "protected": false, "followers_count": 1038, "friends_count": 1235, "listed_count": 43, "created_at": "Mon Apr 27 15:01:57 +0000 2015", "favourites_count": 19388, "utc_offset": null, "time_zone": null, "geo_enabled": true, "verified": false, "statuses_count": 11095, "lang": null, "contributors_enabled": false, "is_translator": false, "is_translation_enabled": false, "profile_background_color": "C0DEED", "profile_background_image_url": "http://abs.twimg.com/images/themes/theme1/bg.png", "profile_background_image_url_https": "https://abs.twimg.com/images/themes/theme1/bg.png", "profile_background_tile": false, "profile_image_url": "http://pbs.twimg.com/profile_images/1366876386615517184/P0T1Ky98_normal.jpg", "profile_image_url_https": "https://pbs.twimg.com/profile_images/1366876386615517184/P0T1Ky98_normal.jpg", "profile_banner_url": "https://pbs.twimg.com/profile_banners/3213596445/1577897145", "profile_link_color": "1DA1F2", "profile_sidebar_border_color": "C0DEED", "profile_sidebar_fill_color": "DDEEF6", "profile_text_color": "333333", "profile_use_background_image": true, "has_extended_profile": false, "default_profile": true, "default_profile_image": false, "following": false, "follow_request_sent": false, "notifications": false, "translator_type": "none", "withheld_in_countries": []}, "geo": null, "coordinates": null, "place": null, "contributors": null, "retweeted_status": {"created_at": "Fri Oct 08 11:50:11 +0000 2021", "id": 1446442796949426198, "id_str": "1446442796949426198", "full_text": "Severn Trent's apologised to parents and their children after reports they were walking through sewage to get to school in the Longden Coleham area of Shrewsbury.\nThe water company said the issue's been caused by a blocked sewer and they have workers on site dealing with it", "truncated": false, "display_text_range": [0, 274], "entities": {"hashtags": [], "symbols": [], "user_mentions": [], "urls": []}, "metadata": {"iso_language_code": "en", "result_type": "recent"}, "source": "<a href=\"https://mobile.twitter.com\" rel=\"nofollow\">Twitter Web App</a>", "in_reply_to_status_id": null, "in_reply_to_status_id_str": null, "in_reply_to_user_id": null, "in_reply_to_user_id_str": null, "in_reply_to_screen_name": null, "user": {"id": 1385247308850372610, "id_str": "1385247308850372610", "name": "Joanne Pryce Gallacher", "screen_name": "joanne_bbc", "location": "", "description": "Political reporter for BBC. Welsh.", "url": null, "entities": {"description": {"urls": []}}, "protected": false, "followers_count": 623, "friends_count": 596, "listed_count": 9, "created_at": "Thu Apr 22 15:01:29 +0000 2021", "favourites_count": 856, "utc_offset": null, "time_zone": null, "geo_enabled": false, "verified": false, "statuses_count": 1333, "lang": null, "contributors_enabled": false, "is_translator": false, "is_translation_enabled": false, "profile_background_color": "F5F8FA", "profile_background_image_url": null, "profile_background_image_url_https": null, "profile_background_tile": false, "profile_image_url": "http://pbs.twimg.com/profile_images/1385252715610230786/liORl61a_normal.jpg", "profile_image_url_https": "https://pbs.twimg.com/profile_images/1385252715610230786/liORl61a_normal.jpg", "profile_banner_url": "https://pbs.twimg.com/profile_banners/1385247308850372610/1631355493", "profile_link_color": "1DA1F2", "profile_sidebar_border_color": "C0DEED", "profile_sidebar_fill_color": "DDEEF6", "profile_text_color": "333333", "profile_use_background_image": true, "has_extended_profile": true, "default_profile": true, "default_profile_image": false, "following": false, "follow_request_sent": false, "notifications": false, "translator_type": "none", "withheld_in_countries": []}, "geo": null, "coordinates": null, "place": null, "contributors": null, "is_quote_status": false, "retweet_count": 7, "favorite_count": 8, "favorited": false, "retweeted": false, "lang": "en"}, "is_quote_status": false, "retweet_count": 7, "favorite_count": 0, "favorited": false, "retweeted": false, "lang": "en"}
{"created_at": "Fri Oct 08 11:55:15 +0000 2021", "id": 1446444074739830805, "id_str": "1446444074739830805", "full_text": "RT @joanne_bbc: Severn Trent's apologised to parents and their children after reports they were walking through sewage to get to school in\u2026", "truncated": false, "display_text_range": [0, 139], "entities": {"hashtags": [], "symbols": [], "user_mentions": [{"screen_name": "joanne_bbc", "name": "Joanne Pryce Gallacher", "id": 1385247308850372610, "id_str": "1385247308850372610", "indices": [3, 14]}], "urls": []}, "metadata": {"iso_language_code": "en", "result_type": "recent"}, "source": "<a href=\"https://about.twitter.com/products/tweetdeck\" rel=\"nofollow\">TweetDeck</a>", "in_reply_to_status_id": null, "in_reply_to_status_id_str": null, "in_reply_to_user_id": null, "in_reply_to_user_id_str": null, "in_reply_to_screen_name": null, "user": {"id": 17155437, "id_str": "17155437", "name": "Jim Hawkins (he/him) \ud83e\udde1", "screen_name": "jimallthetime", "location": "Shrewsbury, Shropshire", "description": "Two degrees in bebop, a PhD in swing, he's the master of rhythm, he's a rock'n'roll king.", "url": null, "entities": {"description": {"urls": []}}, "protected": false, "followers_count": 20319, "friends_count": 5943, "listed_count": 613, "created_at": "Tue Nov 04 13:29:36 +0000 2008", "favourites_count": 235, "utc_offset": null, "time_zone": null, "geo_enabled": false, "verified": false, "statuses_count": 456434, "lang": null, "contributors_enabled": false, "is_translator": false, "is_translation_enabled": false, "profile_background_color": "C0CBCC", "profile_background_image_url": "http://abs.twimg.com/images/themes/theme1/bg.png", "profile_background_image_url_https": "https://abs.twimg.com/images/themes/theme1/bg.png", "profile_background_tile": false, "profile_image_url": "http://pbs.twimg.com/profile_images/796744281797099520/poECZO92_normal.jpg", "profile_image_url_https": "https://pbs.twimg.com/profile_images/796744281797099520/poECZO92_normal.jpg", "profile_banner_url": "https://pbs.twimg.com/profile_banners/17155437/1620371323", "profile_link_color": "FC1717", "profile_sidebar_border_color": "BDDCAD", "profile_sidebar_fill_color": "F1F5EB", "profile_text_color": "333333", "profile_use_background_image": false, "has_extended_profile": false, "default_profile": false, "default_profile_image": false, "following": false, "follow_request_sent": false, "notifications": false, "translator_type": "none", "withheld_in_countries": []}, "geo": null, "coordinates": null, "place": null, "contributors": null, "retweeted_status": {"created_at": "Fri Oct 08 11:50:11 +0000 2021", "id": 1446442796949426198, "id_str": "1446442796949426198", "full_text": "Severn Trent's apologised to parents and their children after reports they were walking through sewage to get to school in the Longden Coleham area of Shrewsbury.\nThe water company said the issue's been caused by a blocked sewer and they have workers on site dealing with it", "truncated": false, "display_text_range": [0, 274], "entities": {"hashtags": [], "symbols": [], "user_mentions": [], "urls": []}, "metadata": {"iso_language_code": "en", "result_type": "recent"}, "source": "<a href=\"https://mobile.twitter.com\" rel=\"nofollow\">Twitter Web App</a>", "in_reply_to_status_id": null, "in_reply_to_status_id_str": null, "in_reply_to_user_id": null, "in_reply_to_user_id_str": null, "in_reply_to_screen_name": null, "user": {"id": 1385247308850372610, "id_str": "1385247308850372610", "name": "Joanne Pryce Gallacher", "screen_name": "joanne_bbc", "location": "", "description": "Political reporter for BBC. Welsh.", "url": null, "entities": {"description": {"urls": []}}, "protected": false, "followers_count": 623, "friends_count": 596, "listed_count": 9, "created_at": "Thu Apr 22 15:01:29 +0000 2021", "favourites_count": 856, "utc_offset": null, "time_zone": null, "geo_enabled": false, "verified": false, "statuses_count": 1333, "lang": null, "contributors_enabled": false, "is_translator": false, "is_translation_enabled": false, "profile_background_color": "F5F8FA", "profile_background_image_url": null, "profile_background_image_url_https": null, "profile_background_tile": false, "profile_image_url": "http://pbs.twimg.com/profile_images/1385252715610230786/liORl61a_normal.jpg", "profile_image_url_https": "https://pbs.twimg.com/profile_images/1385252715610230786/liORl61a_normal.jpg", "profile_banner_url": "https://pbs.twimg.com/profile_banners/1385247308850372610/1631355493", "profile_link_color": "1DA1F2", "profile_sidebar_border_color": "C0DEED", "profile_sidebar_fill_color": "DDEEF6", "profile_text_color": "333333", "profile_use_background_image": true, "has_extended_profile": true, "default_profile": true, "default_profile_image": false, "following": false, "follow_request_sent": false, "notifications": false, "translator_type": "none", "withheld_in_countries": []}, "geo": null, "coordinates": null, "place": null, "contributors": null, "is_quote_status": false, "retweet_count": 7, "favorite_count": 8, "favorited": false, "retweeted": false, "lang": "en"}, "is_quote_status": false, "retweet_count": 7, "favorite_count": 0, "favorited": false, "retweeted": false, "lang": "en"}
{"created_at": "Fri Oct 08 11:50:11 +0000 2021", "id": 1446442796949426198, "id_str": "1446442796949426198", "full_text": "Severn Trent's apologised to parents and their children after reports they were walking through sewage to get to school in the Longden Coleham area of Shrewsbury.\nThe water company said the issue's been caused by a blocked sewer and they have workers on site dealing with it", "truncated": false, "display_text_range": [0, 274], "entities": {"hashtags": [], "symbols": [], "user_mentions": [], "urls": []}, "metadata": {"iso_language_code": "en", "result_type": "recent"}, "source": "<a href=\"https://mobile.twitter.com\" rel=\"nofollow\">Twitter Web App</a>", "in_reply_to_status_id": null, "in_reply_to_status_id_str": null, "in_reply_to_user_id": null, "in_reply_to_user_id_str": null, "in_reply_to_screen_name": null, "user": {"id": 1385247308850372610, "id_str": "1385247308850372610", "name": "Joanne Pryce Gallacher", "screen_name": "joanne_bbc", "location": "", "description": "Political reporter for BBC. Welsh.", "url": null, "entities": {"description": {"urls": []}}, "protected": false, "followers_count": 623, "friends_count": 596, "listed_count": 9, "created_at": "Thu Apr 22 15:01:29 +0000 2021", "favourites_count": 856, "utc_offset": null, "time_zone": null, "geo_enabled": false, "verified": false, "statuses_count": 1333, "lang": null, "contributors_enabled": false, "is_translator": false, "is_translation_enabled": false, "profile_background_color": "F5F8FA", "profile_background_image_url": null, "profile_background_image_url_https": null, "profile_background_tile": false, "profile_image_url": "http://pbs.twimg.com/profile_images/1385252715610230786/liORl61a_normal.jpg", "profile_image_url_https": "https://pbs.twimg.com/profile_images/1385252715610230786/liORl61a_normal.jpg", "profile_banner_url": "https://pbs.twimg.com/profile_banners/1385247308850372610/1631355493", "profile_link_color": "1DA1F2", "profile_sidebar_border_color": "C0DEED", "profile_sidebar_fill_color": "DDEEF6", "profile_text_color": "333333", "profile_use_background_image": true, "has_extended_profile": true, "default_profile": true, "default_profile_image": false, "following": false, "follow_request_sent": false, "notifications": false, "translator_type": "none", "withheld_in_countries": []}, "geo": null, "coordinates": null, "place": null, "contributors": null, "is_quote_status": false, "retweet_count": 7, "favorite_count": 8, "favorited": false, "retweeted": false, "lang": "en"}
{"created_at": "Fri Oct 08 01:05:03 +0000 2021", "id": 1446280444098404356, "id_str": "1446280444098404356", "full_text": "@stwater @TheGreenParty \n\nin 2020 Severn Trent water poured untreated sewage into the nearby River Derwent for 8085 hours, for 360 days of the year. That\u2019s basically non-stop. \n\nhttps://t.co/t5xmPMM07U", "truncated": false, "display_text_range": [0, 201], "entities": {"hashtags": [], "symbols": [], "user_mentions": [{"screen_name": "stwater", "name": "Severn Trent", "id": 28312115, "id_str": "28312115", "indices": [0, 8]}, {"screen_name": "TheGreenParty", "name": "The Green Party", "id": 15529670, "id_str": "15529670", "indices": [9, 23]}], "urls": [{"url": "https://t.co/t5xmPMM07U", "expanded_url": "https://centralbylines.co.uk/shit-creek-britains-supply-chain-crisis-is-polluting-our-rivers/", "display_url": "centralbylines.co.uk/shit-creek-bri\u2026", "indices": [178, 201]}]}, "metadata": {"iso_language_code": "en", "result_type": "recent"}, "source": "<a href=\"https://mobile.twitter.com\" rel=\"nofollow\">Twitter Web App</a>", "in_reply_to_status_id": null, "in_reply_to_status_id_str": null, "in_reply_to_user_id": 28312115, "in_reply_to_user_id_str": "28312115", "in_reply_to_screen_name": "stwater", "user": {"id": 159774896, "id_str": "159774896", "name": "\ud83d\udd77Real", "screen_name": "DonaldFrump", "location": "Pro Labour. Against Brexit", "description": "Social Democrat. Not a fan of gammon.\n#FreePalestine #BDS\n #Rejoin #FBPE #BrexitReality #johnsonvariant\n #ToryCorruption", "url": "https://t.co/nWTBPwVfwn", "entities": {"url": {"urls": [{"url": "https://t.co/nWTBPwVfwn", "expanded_url": "https://www.sciencedaily.com/releases/2017/01/170130111008.htm", "display_url": "sciencedaily.com/releases/2017/\u2026", "indices": [0, 23]}]}, "description": {"urls": []}}, "protected": false, "followers_count": 3554, "friends_count": 4962, "listed_count": 30, "created_at": "Sat Jun 26 09:04:37 +0000 2010", "favourites_count": 73576, "utc_offset": null, "time_zone": null, "geo_enabled": false, "verified": false, "statuses_count": 87048, "lang": null, "contributors_enabled": false, "is_translator": false, "is_translation_enabled": false, "profile_background_color": "1C0B0A", "profile_background_image_url": "http://abs.twimg.com/images/themes/theme18/bg.gif", "profile_background_image_url_https": "https://abs.twimg.com/images/themes/theme18/bg.gif", "profile_background_tile": false, "profile_image_url": "http://pbs.twimg.com/profile_images/1367760593067732994/U0erzeyT_normal.jpg", "profile_image_url_https": "https://pbs.twimg.com/profile_images/1367760593067732994/U0erzeyT_normal.jpg", "profile_banner_url": "https://pbs.twimg.com/profile_banners/159774896/1614934443", "profile_link_color": "038543", "profile_sidebar_border_color": "FFFFFF", "profile_sidebar_fill_color": "F6F6F6", "profile_text_color": "333333", "profile_use_background_image": true, "has_extended_profile": false, "default_profile": false, "default_profile_image": false, "following": false, "follow_request_sent": false, "notifications": false, "translator_type": "none", "withheld_in_countries": []}, "geo": null, "coordinates": null, "place": null, "contributors": null, "is_quote_status": false, "retweet_count": 0, "favorite_count": 0, "favorited": false, "retweeted": false, "possibly_sensitive": false, "lang": "en"}
{"created_at": "Wed Oct 06 13:48:20 +0000 2021", "id": 1445747756945969159, "id_str": "1445747756945969159", "full_text": "@Mark_J_Harper @Jesse_Norman @JonesyFay \"64 years worth of raw sewage dumped into rivers and streams by Severn Trent | ITV News Central\" https://t.co/zRRW8tA9Pl", "truncated": false, "display_text_range": [40, 160], "entities": {"hashtags": [], "symbols": [], "user_mentions": [{"screen_name": "Mark_J_Harper", "name": "Mark Harper", "id": 429751008, "id_str": "429751008", "indices": [0, 14]}, {"screen_name": "Jesse_Norman", "name": "Jesse Norman", "id": 78702900, "id_str": "78702900", "indices": [15, 28]}, {"screen_name": "JonesyFay", "name": "Fay Jones MP", "id": 134257511, "id_str": "134257511", "indices": [29, 39]}], "urls": [{"url": "https://t.co/zRRW8tA9Pl", "expanded_url": "https://www.itv.com/news/central/2021-04-01/severn-trent-water-64-years-worth-raw-sewage-dumped-rivers-streams", "display_url": "itv.com/news/central/2\u2026", "indices": [137, 160]}]}, "metadata": {"iso_language_code": "en", "result_type": "recent"}, "source": "<a href=\"http://twitter.com/download/android\" rel=\"nofollow\">Twitter for Android</a>", "in_reply_to_status_id": 1445747673584136197, "in_reply_to_status_id_str": "1445747673584136197", "in_reply_to_user_id": 74958679, "in_reply_to_user_id_str": "74958679", "in_reply_to_screen_name": "Pidgeonpost", "user": {"id": 74958679, "id_str": "74958679", "name": "Tim-the-European", "screen_name": "Pidgeonpost", "location": "Europe", "description": "\ud83c\uddec\ud83c\udde7 \ud83c\uddea\ud83c\uddfa \ud83d\udc99 #FBPE #FBPA #JohnsonOut #GTTO", "url": null, "entities": {"description": {"urls": []}}, "protected": false, "followers_count": 287, "friends_count": 322, "listed_count": 0, "created_at": "Thu Sep 17 07:31:41 +0000 2009", "favourites_count": 11826, "utc_offset": null, "time_zone": null, "geo_enabled": false, "verified": false, "statuses_count": 5968, "lang": null, "contributors_enabled": false, "is_translator": false, "is_translation_enabled": false, "profile_background_color": "C0DEED", "profile_background_image_url": "http://abs.twimg.com/images/themes/theme1/bg.png", "profile_background_image_url_https": "https://abs.twimg.com/images/themes/theme1/bg.png", "profile_background_tile": false, "profile_image_url": "http://pbs.twimg.com/profile_images/1370765653775413250/Jykeq15C_normal.jpg", "profile_image_url_https": "https://pbs.twimg.com/profile_images/1370765653775413250/Jykeq15C_normal.jpg", "profile_link_color": "1DA1F2", "profile_sidebar_border_color": "C0DEED", "profile_sidebar_fill_color": "DDEEF6", "profile_text_color": "333333", "profile_use_background_image": true, "has_extended_profile": false, "default_profile": true, "default_profile_image": false, "following": false, "follow_request_sent": false, "notifications": false, "translator_type": "none", "withheld_in_countries": []}, "geo": null, "coordinates": null, "place": null, "contributors": null, "is_quote_status": false, "retweet_count": 0, "favorite_count": 0, "favorited": false, "retweeted": false, "possibly_sensitive": false, "lang": "en"}
{"created_at": "Wed Oct 06 08:56:35 +0000 2021", "id": 1445674334979190790, "id_str": "1445674334979190790", "full_text": "\"It is now understood that the problem contracts are a new \u00a3100m water treatment plant at Frankley for Severn Trent Water and the new \u00a360m Bellozanne sewage treatment works in Jersey. They were quite ambitious undertakings for a company the size of NMCN...\"", "truncated": false, "display_text_range": [0, 257], "entities": {"hashtags": [], "symbols": [], "user_mentions": [], "urls": []}, "metadata": {"iso_language_code": "en", "result_type": "recent"}, "source": "<a href=\"https://mobile.twitter.com\" rel=\"nofollow\">Twitter Web App</a>", "in_reply_to_status_id": 1445674332995219459, "in_reply_to_status_id_str": "1445674332995219459", "in_reply_to_user_id": 68378203, "in_reply_to_user_id_str": "68378203", "in_reply_to_screen_name": "highamnews", "user": {"id": 68378203, "id_str": "68378203", "name": "Nick Higham", "screen_name": "highamnews", "location": "", "description": "The Mercenary River, a history of London's water, due from @HachetteUK April 2022. Water news, London history, infrastructure etc etc... Ex BBC journo", "url": null, "entities": {"description": {"urls": []}}, "protected": false, "followers_count": 7924, "friends_count": 653, "listed_count": 163, "created_at": "Mon Aug 24 10:32:07 +0000 2009", "favourites_count": 5462, "utc_offset": null, "time_zone": null, "geo_enabled": true, "verified": false, "statuses_count": 17208, "lang": null, "contributors_enabled": false, "is_translator": false, "is_translation_enabled": false, "profile_background_color": "C0DEED", "profile_background_image_url": "http://abs.twimg.com/images/themes/theme1/bg.png", "profile_background_image_url_https": "https://abs.twimg.com/images/themes/theme1/bg.png", "profile_background_tile": false, "profile_image_url": "http://pbs.twimg.com/profile_images/1241761572889997316/x3tkGrlG_normal.jpg", "profile_image_url_https": "https://pbs.twimg.com/profile_images/1241761572889997316/x3tkGrlG_normal.jpg", "profile_banner_url": "https://pbs.twimg.com/profile_banners/68378203/1580151133", "profile_link_color": "1DA1F2", "profile_sidebar_border_color": "C0DEED", "profile_sidebar_fill_color": "DDEEF6", "profile_text_color": "333333", "profile_use_background_image": true, "has_extended_profile": false, "default_profile": true, "default_profile_image": false, "following": false, "follow_request_sent": false, "notifications": false, "translator_type": "none", "withheld_in_countries": []}, "geo": null, "coordinates": null, "place": null, "contributors": null, "is_quote_status": false, "retweet_count": 0, "favorite_count": 0, "favorited": false, "retweeted": false, "lang": "en"}
{"created_at": "Wed Oct 06 07:01:51 +0000 2021", "id": 1445645462191554562, "id_str": "1445645462191554562", "full_text": "RT @InverterDrives: Severn Trent Water is saving 15,000 kWh per year after installing two ABB variable speed drives at its Edwinstowe filte\u2026", "truncated": false, "display_text_range": [0, 140], "entities": {"hashtags": [], "symbols": [], "user_mentions": [{"screen_name": "InverterDrives", "name": "InverterDriveSystems", "id": 545172210, "id_str": "545172210", "indices": [3, 18]}], "urls": []}, "metadata": {"iso_language_code": "en", "result_type": "recent"}, "source": "<a href=\"https://mobile.twitter.com\" rel=\"nofollow\">Twitter Web App</a>", "in_reply_to_status_id": null, "in_reply_to_status_id_str": null, "in_reply_to_user_id": null, "in_reply_to_user_id_str": null, "in_reply_to_screen_name": null, "user": {"id": 91420833, "id_str": "91420833", "name": "FTS Safety Solutions", "screen_name": "FTSOnline", "location": "Milton Keynes", "description": "PAT Testing, Thermal Imaging Surveys, Fire Extinguisher and Alarm Maintenance, Fixed Wire Testing, Emergency Lighting Inspections, Risk Assessments 0330 6600264", "url": "http://t.co/z7lAkA4rec", "entities": {"url": {"urls": [{"url": "http://t.co/z7lAkA4rec", "expanded_url": "http://www.ftssafetysolutions.co.uk", "display_url": "ftssafetysolutions.co.uk", "indices": [0, 22]}]}, "description": {"urls": []}}, "protected": false, "followers_count": 3423, "friends_count": 3936, "listed_count": 77, "created_at": "Fri Nov 20 20:40:18 +0000 2009", "favourites_count": 47460, "utc_offset": null, "time_zone": null, "geo_enabled": false, "verified": false, "statuses_count": 41322, "lang": null, "contributors_enabled": false, "is_translator": false, "is_translation_enabled": false, "profile_background_color": "3A7728", "profile_background_image_url": "http://abs.twimg.com/images/themes/theme1/bg.png", "profile_background_image_url_https": "https://abs.twimg.com/images/themes/theme1/bg.png", "profile_background_tile": false, "profile_image_url": "http://pbs.twimg.com/profile_images/515825198302380033/bz-WDtnV_normal.jpeg", "profile_image_url_https": "https://pbs.twimg.com/profile_images/515825198302380033/bz-WDtnV_normal.jpeg", "profile_banner_url": "https://pbs.twimg.com/profile_banners/91420833/1491299221", "profile_link_color": "4A913C", "profile_sidebar_border_color": "C0DEED", "profile_sidebar_fill_color": "DDEEF6", "profile_text_color": "333333", "profile_use_background_image": true, "has_extended_profile": false, "default_profile": false, "default_profile_image": false, "following": false, "follow_request_sent": false, "notifications": false, "translator_type": "none", "withheld_in_countries": []}, "geo": null, "coordinates": null, "place": null, "contributors": null, "retweeted_status": {"created_at": "Tue Oct 05 08:46:07 +0000 2021", "id": 1445309313002704898, "id_str": "1445309313002704898", "full_text": "Severn Trent Water is saving 15,000 kWh per year after installing two ABB variable speed drives at its Edwinstowe filter bed sewage treatment works in Nottinghamshire. Read more here: https://t.co/b4OXX9Fajh   #ABB #VariableSpeedDrives #Inverters #FilterBed #SewageTreatment https://t.co/zhFJfWF59X", "truncated": false, "display_text_range": [0, 274], "entities": {"hashtags": [{"text": "ABB", "indices": [210, 214]}, {"text": "VariableSpeedDrives", "indices": [215, 235]}, {"text": "Inverters", "indices": [236, 246]}, {"text": "FilterBed", "indices": [247, 257]}, {"text": "SewageTreatment", "indices": [258, 274]}], "symbols": [], "user_mentions": [], "urls": [{"url": "https://t.co/b4OXX9Fajh", "expanded_url": "https://www.inverterdrivesystems.com/sewage-works-saves-energy-on-filter-bed-application/", "display_url": "inverterdrivesystems.com/sewage-works-s\u2026", "indices": [184, 207]}], "media": [{"id": 1445308985041686529, "id_str": "1445308985041686529", "indices": [275, 298], "media_url": "http://pbs.twimg.com/media/FA7E3UQXEAE4_99.jpg", "media_url_https": "https://pbs.twimg.com/media/FA7E3UQXEAE4_99.jpg", "url": "https://t.co/zhFJfWF59X", "display_url": "pic.twitter.com/zhFJfWF59X", "expanded_url": "https://twitter.com/InverterDrives/status/1445309313002704898/photo/1", "type": "photo", "sizes": {"thumb": {"w": 150, "h": 150, "resize": "crop"}, "medium": {"w": 1200, "h": 675, "resize": "fit"}, "small": {"w": 680, "h": 383, "resize": "fit"}, "large": {"w": 1379, "h": 776, "resize": "fit"}}}]}, "extended_entities": {"media": [{"id": 1445308985041686529, "id_str": "1445308985041686529", "indices": [275, 298], "media_url": "http://pbs.twimg.com/media/FA7E3UQXEAE4_99.jpg", "media_url_https": "https://pbs.twimg.com/media/FA7E3UQXEAE4_99.jpg", "url": "https://t.co/zhFJfWF59X", "display_url": "pic.twitter.com/zhFJfWF59X", "expanded_url": "https://twitter.com/InverterDrives/status/1445309313002704898/photo/1", "type": "photo", "sizes": {"thumb": {"w": 150, "h": 150, "resize": "crop"}, "medium": {"w": 1200, "h": 675, "resize": "fit"}, "small": {"w": 680, "h": 383, "resize": "fit"}, "large": {"w": 1379, "h": 776, "resize": "fit"}}}]}, "metadata": {"iso_language_code": "en", "result_type": "recent"}, "source": "<a href=\"https://mobile.twitter.com\" rel=\"nofollow\">Twitter Web App</a>", "in_reply_to_status_id": null, "in_reply_to_status_id_str": null, "in_reply_to_user_id": null, "in_reply_to_user_id_str": null, "in_reply_to_screen_name": null, "user": {"id": 545172210, "id_str": "545172210", "name": "InverterDriveSystems", "screen_name": "InverterDrives", "location": "Ilkeston, England", "description": "One of the UK's largest ABB VP (Authorised Value Provider). We sell, commission, hire, fit, train, service and repair ABB inverters.", "url": "http://t.co/TYdsVmxMNR", "entities": {"url": {"urls": [{"url": "http://t.co/TYdsVmxMNR", "expanded_url": "http://www.inverterdrivesystems.com", "display_url": "inverterdrivesystems.com", "indices": [0, 22]}]}, "description": {"urls": []}}, "protected": false, "followers_count": 2423, "friends_count": 2426, "listed_count": 130, "created_at": "Wed Apr 04 12:29:33 +0000 2012", "favourites_count": 24029, "utc_offset": null, "time_zone": null, "geo_enabled": true, "verified": false, "statuses_count": 22967, "lang": null, "contributors_enabled": false, "is_translator": false, "is_translation_enabled": false, "profile_background_color": "FFFFFF", "profile_background_image_url": "http://abs.twimg.com/images/themes/theme1/bg.png", "profile_background_image_url_https": "https://abs.twimg.com/images/themes/theme1/bg.png", "profile_background_tile": true, "profile_image_url": "http://pbs.twimg.com/profile_images/846234308440403968/Z1OGlHtK_normal.jpg", "profile_image_url_https": "https://pbs.twimg.com/profile_images/846234308440403968/Z1OGlHtK_normal.jpg", "profile_banner_url": "https://pbs.twimg.com/profile_banners/545172210/1490593409", "profile_link_color": "FF0000", "profile_sidebar_border_color": "C0DEED", "profile_sidebar_fill_color": "DDEEF6", "profile_text_color": "333333", "profile_use_background_image": true, "has_extended_profile": true, "default_profile": false, "default_profile_image": false, "following": false, "follow_request_sent": false, "notifications": false, "translator_type": "none", "withheld_in_countries": []}, "geo": null, "coordinates": null, "place": null, "contributors": null, "is_quote_status": false, "retweet_count": 8, "favorite_count": 21, "favorited": false, "retweeted": false, "possibly_sensitive": false, "lang": "en"}, "is_quote_status": false, "retweet_count": 8, "favorite_count": 0, "favorited": false, "retweeted": false, "lang": "en"}
{"created_at": "Wed Oct 06 05:44:16 +0000 2021", "id": 1445625936120975364, "id_str": "1445625936120975364", "full_text": "RT @InverterDrives: Severn Trent Water is saving 15,000 kWh per year after installing two ABB variable speed drives at its Edwinstowe filte\u2026", "truncated": false, "display_text_range": [0, 140], "entities": {"hashtags": [], "symbols": [], "user_mentions": [{"screen_name": "InverterDrives", "name": "InverterDriveSystems", "id": 545172210, "id_str": "545172210", "indices": [3, 18]}], "urls": []}, "metadata": {"iso_language_code": "en", "result_type": "recent"}, "source": "<a href=\"https://mobile.twitter.com\" rel=\"nofollow\">Twitter Web App</a>", "in_reply_to_status_id": null, "in_reply_to_status_id_str": null, "in_reply_to_user_id": null, "in_reply_to_user_id_str": null, "in_reply_to_screen_name": null, "user": {"id": 268723658, "id_str": "268723658", "name": "Jules White", "screen_name": "The_Last_Hurdle", "location": "Silverstone, Northamptonshire", "description": "I am your out-sourced Marketing Manager. Working with SMEs: Traditional & Digital Marketing, Social Media, Content Writing, Website Design, Organic SEO & PPC.", "url": "https://t.co/mUqCevnf58", "entities": {"url": {"urls": [{"url": "https://t.co/mUqCevnf58", "expanded_url": "https://www.thelasthurdle.co.uk", "display_url": "thelasthurdle.co.uk", "indices": [0, 23]}]}, "description": {"urls": []}}, "protected": false, "followers_count": 9525, "friends_count": 8149, "listed_count": 409, "created_at": "Sat Mar 19 10:10:17 +0000 2011", "favourites_count": 79869, "utc_offset": null, "time_zone": null, "geo_enabled": true, "verified": false, "statuses_count": 80215, "lang": null, "contributors_enabled": false, "is_translator": false, "is_translation_enabled": false, "profile_background_color": "FFFFFF", "profile_background_image_url": "http://abs.twimg.com/images/themes/theme9/bg.gif", "profile_background_image_url_https": "https://abs.twimg.com/images/themes/theme9/bg.gif", "profile_background_tile": false, "profile_image_url": "http://pbs.twimg.com/profile_images/1410939094981660674/NV9chRH8_normal.jpg", "profile_image_url_https": "https://pbs.twimg.com/profile_images/1410939094981660674/NV9chRH8_normal.jpg", "profile_banner_url": "https://pbs.twimg.com/profile_banners/268723658/1609499150", "profile_link_color": "FA743E", "profile_sidebar_border_color": "FFFFFF", "profile_sidebar_fill_color": "252429", "profile_text_color": "666666", "profile_use_background_image": true, "has_extended_profile": true, "default_profile": false, "default_profile_image": false, "following": false, "follow_request_sent": false, "notifications": false, "translator_type": "none", "withheld_in_countries": []}, "geo": null, "coordinates": null, "place": null, "contributors": null, "retweeted_status": {"created_at": "Tue Oct 05 08:46:07 +0000 2021", "id": 1445309313002704898, "id_str": "1445309313002704898", "full_text": "Severn Trent Water is saving 15,000 kWh per year after installing two ABB variable speed drives at its Edwinstowe filter bed sewage treatment works in Nottinghamshire. Read more here: https://t.co/b4OXX9Fajh   #ABB #VariableSpeedDrives #Inverters #FilterBed #SewageTreatment https://t.co/zhFJfWF59X", "truncated": false, "display_text_range": [0, 274], "entities": {"hashtags": [{"text": "ABB", "indices": [210, 214]}, {"text": "VariableSpeedDrives", "indices": [215, 235]}, {"text": "Inverters", "indices": [236, 246]}, {"text": "FilterBed", "indices": [247, 257]}, {"text": "SewageTreatment", "indices": [258, 274]}], "symbols": [], "user_mentions": [], "urls": [{"url": "https://t.co/b4OXX9Fajh", "expanded_url": "https://www.inverterdrivesystems.com/sewage-works-saves-energy-on-filter-bed-application/", "display_url": "inverterdrivesystems.com/sewage-works-s\u2026", "indices": [184, 207]}], "media": [{"id": 1445308985041686529, "id_str": "1445308985041686529", "indices": [275, 298], "media_url": "http://pbs.twimg.com/media/FA7E3UQXEAE4_99.jpg", "media_url_https": "https://pbs.twimg.com/media/FA7E3UQXEAE4_99.jpg", "url": "https://t.co/zhFJfWF59X", "display_url": "pic.twitter.com/zhFJfWF59X", "expanded_url": "https://twitter.com/InverterDrives/status/1445309313002704898/photo/1", "type": "photo", "sizes": {"thumb": {"w": 150, "h": 150, "resize": "crop"}, "medium": {"w": 1200, "h": 675, "resize": "fit"}, "small": {"w": 680, "h": 383, "resize": "fit"}, "large": {"w": 1379, "h": 776, "resize": "fit"}}}]}, "extended_entities": {"media": [{"id": 1445308985041686529, "id_str": "1445308985041686529", "indices": [275, 298], "media_url": "http://pbs.twimg.com/media/FA7E3UQXEAE4_99.jpg", "media_url_https": "https://pbs.twimg.com/media/FA7E3UQXEAE4_99.jpg", "url": "https://t.co/zhFJfWF59X", "display_url": "pic.twitter.com/zhFJfWF59X", "expanded_url": "https://twitter.com/InverterDrives/status/1445309313002704898/photo/1", "type": "photo", "sizes": {"thumb": {"w": 150, "h": 150, "resize": "crop"}, "medium": {"w": 1200, "h": 675, "resize": "fit"}, "small": {"w": 680, "h": 383, "resize": "fit"}, "large": {"w": 1379, "h": 776, "resize": "fit"}}}]}, "metadata": {"iso_language_code": "en", "result_type": "recent"}, "source": "<a href=\"https://mobile.twitter.com\" rel=\"nofollow\">Twitter Web App</a>", "in_reply_to_status_id": null, "in_reply_to_status_id_str": null, "in_reply_to_user_id": null, "in_reply_to_user_id_str": null, "in_reply_to_screen_name": null, "user": {"id": 545172210, "id_str": "545172210", "name": "InverterDriveSystems", "screen_name": "InverterDrives", "location": "Ilkeston, England", "description": "One of the UK's largest ABB VP (Authorised Value Provider). We sell, commission, hire, fit, train, service and repair ABB inverters.", "url": "http://t.co/TYdsVmxMNR", "entities": {"url": {"urls": [{"url": "http://t.co/TYdsVmxMNR", "expanded_url": "http://www.inverterdrivesystems.com", "display_url": "inverterdrivesystems.com", "indices": [0, 22]}]}, "description": {"urls": []}}, "protected": false, "followers_count": 2423, "friends_count": 2426, "listed_count": 130, "created_at": "Wed Apr 04 12:29:33 +0000 2012", "favourites_count": 24029, "utc_offset": null, "time_zone": null, "geo_enabled": true, "verified": false, "statuses_count": 22967, "lang": null, "contributors_enabled": false, "is_translator": false, "is_translation_enabled": false, "profile_background_color": "FFFFFF", "profile_background_image_url": "http://abs.twimg.com/images/themes/theme1/bg.png", "profile_background_image_url_https": "https://abs.twimg.com/images/themes/theme1/bg.png", "profile_background_tile": true, "profile_image_url": "http://pbs.twimg.com/profile_images/846234308440403968/Z1OGlHtK_normal.jpg", "profile_image_url_https": "https://pbs.twimg.com/profile_images/846234308440403968/Z1OGlHtK_normal.jpg", "profile_banner_url": "https://pbs.twimg.com/profile_banners/545172210/1490593409", "profile_link_color": "FF0000", "profile_sidebar_border_color": "C0DEED", "profile_sidebar_fill_color": "DDEEF6", "profile_text_color": "333333", "profile_use_background_image": true, "has_extended_profile": true, "default_profile": false, "default_profile_image": false, "following": false, "follow_request_sent": false, "notifications": false, "translator_type": "none", "withheld_in_countries": []}, "geo": null, "coordinates": null, "place": null, "contributors": null, "is_quote_status": false, "retweet_count": 8, "favorite_count": 21, "favorited": false, "retweeted": false, "possibly_sensitive": false, "lang": "en"}, "is_quote_status": false, "retweet_count": 8, "favorite_count": 0, "favorited": false, "retweeted": false, "lang": "en"}
