{"created_at": "Sat Oct 02 18:37:58 +0000 2021", "id": 1444371095147229188, "id_str": "1444371095147229188", "full_text": "bristol tap water: 8", "truncated": false, "display_text_range": [0, 20], "entities": {"hashtags": [], "symbols": [], "user_mentions": [], "urls": []}, "metadata": {"iso_language_code": "en", "result_type": "recent"}, "source": "<a href=\"http://twitter.com/download/iphone\" rel=\"nofollow\">Twitter for iPhone</a>", "in_reply_to_status_id": null, "in_reply_to_status_id_str": null, "in_reply_to_user_id": null, "in_reply_to_user_id_str": null, "in_reply_to_screen_name": null, "user": {"id": 720571088, "id_str": "720571088", "name": "ash", "screen_name": "AshJaimal", "location": "Wolverhampton, England", "description": "guapTarantino\u2019s biggestFan // ash#7830", "url": null, "entities": {"description": {"urls": []}}, "protected": false, "followers_count": 315, "friends_count": 994, "listed_count": 0, "created_at": "Fri Jul 27 17:45:52 +0000 2012", "favourites_count": 32884, "utc_offset": null, "time_zone": null, "geo_enabled": false, "verified": false, "statuses_count": 12315, "lang": null, "contributors_enabled": false, "is_translator": false, "is_translation_enabled": false, "profile_background_color": "C0DEED", "profile_background_image_url": "http://abs.twimg.com/images/themes/theme1/bg.png", "profile_background_image_url_https": "https://abs.twimg.com/images/themes/theme1/bg.png", "profile_background_tile": false, "profile_image_url": "http://pbs.twimg.com/profile_images/945801609514311680/uxm4Hu-l_normal.jpg", "profile_image_url_https": "https://pbs.twimg.com/profile_images/945801609514311680/uxm4Hu-l_normal.jpg", "profile_banner_url": "https://pbs.twimg.com/profile_banners/720571088/1502879066", "profile_link_color": "FA743E", "profile_sidebar_border_color": "000000", "profile_sidebar_fill_color": "DDEEF6", "profile_text_color": "333333", "profile_use_background_image": true, "has_extended_profile": true, "default_profile": false, "default_profile_image": false, "following": false, "follow_request_sent": false, "notifications": false, "translator_type": "none", "withheld_in_countries": []}, "geo": null, "coordinates": null, "place": null, "contributors": null, "is_quote_status": false, "retweet_count": 0, "favorite_count": 0, "favorited": false, "retweeted": false, "lang": "en"}
{"created_at": "Sat Oct 02 09:00:11 +0000 2021", "id": 1444225689725583362, "id_str": "1444225689725583362", "full_text": "@BristolWater Many thanks to Bristol Water for sending Sam first thing this morning to repair the stop tap valve and restoring our water supply.", "truncated": false, "display_text_range": [14, 144], "entities": {"hashtags": [], "symbols": [], "user_mentions": [{"screen_name": "BristolWater", "name": "Bristol Water", "id": 304306170, "id_str": "304306170", "indices": [0, 13]}], "urls": []}, "metadata": {"iso_language_code": "en", "result_type": "recent"}, "source": "<a href=\"https://mobile.twitter.com\" rel=\"nofollow\">Twitter Web App</a>", "in_reply_to_status_id": 1443858475449204738, "in_reply_to_status_id_str": "1443858475449204738", "in_reply_to_user_id": 304306170, "in_reply_to_user_id_str": "304306170", "in_reply_to_screen_name": "BristolWater", "user": {"id": 299706577, "id_str": "299706577", "name": "Foxglade", "screen_name": "bristolgrim", "location": "Bristol", "description": "", "url": null, "entities": {"description": {"urls": []}}, "protected": false, "followers_count": 8, "friends_count": 34, "listed_count": 0, "created_at": "Mon May 16 15:15:52 +0000 2011", "favourites_count": 408, "utc_offset": null, "time_zone": null, "geo_enabled": false, "verified": false, "statuses_count": 83, "lang": null, "contributors_enabled": false, "is_translator": false, "is_translation_enabled": false, "profile_background_color": "C0DEED", "profile_background_image_url": "http://abs.twimg.com/images/themes/theme1/bg.png", "profile_background_image_url_https": "https://abs.twimg.com/images/themes/theme1/bg.png", "profile_background_tile": false, "profile_image_url": "http://abs.twimg.com/sticky/default_profile_images/default_profile_normal.png", "profile_image_url_https": "https://abs.twimg.com/sticky/default_profile_images/default_profile_normal.png", "profile_link_color": "1DA1F2", "profile_sidebar_border_color": "C0DEED", "profile_sidebar_fill_color": "DDEEF6", "profile_text_color": "333333", "profile_use_background_image": true, "has_extended_profile": false, "default_profile": true, "default_profile_image": true, "following": false, "follow_request_sent": false, "notifications": false, "translator_type": "none", "withheld_in_countries": []}, "geo": null, "coordinates": null, "place": null, "contributors": null, "is_quote_status": false, "retweet_count": 0, "favorite_count": 1, "favorited": false, "retweeted": false, "lang": "en"}
{"created_at": "Fri Oct 01 09:14:54 +0000 2021", "id": 1443867003480166400, "id_str": "1443867003480166400", "full_text": "Take care re #Bristol harbour water and revert to drinking tap water\u203c\ufe0f https://t.co/HlHBo6D1Gz", "truncated": false, "display_text_range": [0, 70], "entities": {"hashtags": [{"text": "Bristol", "indices": [13, 21]}], "symbols": [], "user_mentions": [], "urls": [], "media": [{"id": 1443866996488253440, "id_str": "1443866996488253440", "indices": [71, 94], "media_url": "http://pbs.twimg.com/media/FAmlYiSXsAAY3m7.jpg", "media_url_https": "https://pbs.twimg.com/media/FAmlYiSXsAAY3m7.jpg", "url": "https://t.co/HlHBo6D1Gz", "display_url": "pic.twitter.com/HlHBo6D1Gz", "expanded_url": "https://twitter.com/BBCA_Bristol/status/1443867003480166400/photo/1", "type": "photo", "sizes": {"thumb": {"w": 150, "h": 150, "resize": "crop"}, "medium": {"w": 554, "h": 1200, "resize": "fit"}, "large": {"w": 720, "h": 1560, "resize": "fit"}, "small": {"w": 314, "h": 680, "resize": "fit"}}}]}, "extended_entities": {"media": [{"id": 1443866996488253440, "id_str": "1443866996488253440", "indices": [71, 94], "media_url": "http://pbs.twimg.com/media/FAmlYiSXsAAY3m7.jpg", "media_url_https": "https://pbs.twimg.com/media/FAmlYiSXsAAY3m7.jpg", "url": "https://t.co/HlHBo6D1Gz", "display_url": "pic.twitter.com/HlHBo6D1Gz", "expanded_url": "https://twitter.com/BBCA_Bristol/status/1443867003480166400/photo/1", "type": "photo", "sizes": {"thumb": {"w": 150, "h": 150, "resize": "crop"}, "medium": {"w": 554, "h": 1200, "resize": "fit"}, "large": {"w": 720, "h": 1560, "resize": "fit"}, "small": {"w": 314, "h": 680, "resize": "fit"}}}]}, "metadata": {"iso_language_code": "en", "result_type": "recent"}, "source": "<a href=\"http://twitter.com/download/iphone\" rel=\"nofollow\">Twitter for iPhone</a>", "in_reply_to_status_id": null, "in_reply_to_status_id_str": null, "in_reply_to_user_id": null, "in_reply_to_user_id_str": null, "in_reply_to_screen_name": null, "user": {"id": 1382083222654349314, "id_str": "1382083222654349314", "name": "BRISTOL BOATERS COMMUNITY ASSOCIATION", "screen_name": "BBCA_Bristol", "location": "Bristol Harbour", "description": "Bristol Harbour is an area where people live, work, reside and enjoy leisure activities \u2013 and our aim is to preserve, develop and enhance this community.", "url": "https://t.co/M9psccCwKL", "entities": {"url": {"urls": [{"url": "https://t.co/M9psccCwKL", "expanded_url": "http://bristolboaters.org", "display_url": "bristolboaters.org", "indices": [0, 23]}]}, "description": {"urls": []}}, "protected": false, "followers_count": 295, "friends_count": 1326, "listed_count": 1, "created_at": "Tue Apr 13 21:28:26 +0000 2021", "favourites_count": 394, "utc_offset": null, "time_zone": null, "geo_enabled": false, "verified": false, "statuses_count": 211, "lang": null, "contributors_enabled": false, "is_translator": false, "is_translation_enabled": false, "profile_background_color": "F5F8FA", "profile_background_image_url": null, "profile_background_image_url_https": null, "profile_background_tile": false, "profile_image_url": "http://pbs.twimg.com/profile_images/1382099403335462914/9bmQQjIY_normal.jpg", "profile_image_url_https": "https://pbs.twimg.com/profile_images/1382099403335462914/9bmQQjIY_normal.jpg", "profile_banner_url": "https://pbs.twimg.com/profile_banners/1382083222654349314/1618350141", "profile_link_color": "1DA1F2", "profile_sidebar_border_color": "C0DEED", "profile_sidebar_fill_color": "DDEEF6", "profile_text_color": "333333", "profile_use_background_image": true, "has_extended_profile": true, "default_profile": true, "default_profile_image": false, "following": false, "follow_request_sent": false, "notifications": false, "translator_type": "none", "withheld_in_countries": []}, "geo": null, "coordinates": null, "place": null, "contributors": null, "is_quote_status": false, "retweet_count": 0, "favorite_count": 1, "favorited": false, "retweeted": false, "possibly_sensitive": false, "lang": "en"}
{"created_at": "Wed Sep 29 11:44:32 +0000 2021", "id": 1443179884407312391, "id_str": "1443179884407312391", "full_text": "RT @BathCaravanPark: Have the extra comforts of a fully-serviced pitch.\n\u2611\ufe0f 9m x 6m gravel hardstanding \n\u2611\ufe0f 16A Ehc.\n\u2611\ufe0f Fresh water tap\n\u2611\ufe0f G\u2026", "truncated": false, "display_text_range": [0, 140], "entities": {"hashtags": [], "symbols": [], "user_mentions": [{"screen_name": "BathCaravanPark", "name": "Bath Caravan Park", "id": 2473702748, "id_str": "2473702748", "indices": [3, 19]}], "urls": []}, "metadata": {"iso_language_code": "en", "result_type": "recent"}, "source": "<a href=\"http://twitter.com/#!/download/ipad\" rel=\"nofollow\">Twitter for iPad</a>", "in_reply_to_status_id": null, "in_reply_to_status_id_str": null, "in_reply_to_user_id": null, "in_reply_to_user_id_str": null, "in_reply_to_screen_name": null, "user": {"id": 2873901385, "id_str": "2873901385", "name": "Visit West Dorset & South West", "screen_name": "VisitWestDorset", "location": "England, United Kingdom", "description": "Promoting Dorset, Jurassic Coast and South West England local business and information, opportunities & interests for local folk and visitors to the area", "url": null, "entities": {"description": {"urls": []}}, "protected": false, "followers_count": 2471, "friends_count": 1956, "listed_count": 14, "created_at": "Thu Oct 23 19:06:06 +0000 2014", "favourites_count": 45637, "utc_offset": null, "time_zone": null, "geo_enabled": false, "verified": false, "statuses_count": 13112, "lang": null, "contributors_enabled": false, "is_translator": false, "is_translation_enabled": false, "profile_background_color": "C0DEED", "profile_background_image_url": "http://abs.twimg.com/images/themes/theme1/bg.png", "profile_background_image_url_https": "https://abs.twimg.com/images/themes/theme1/bg.png", "profile_background_tile": false, "profile_image_url": "http://pbs.twimg.com/profile_images/1185841674259447808/4SFvR87s_normal.jpg", "profile_image_url_https": "https://pbs.twimg.com/profile_images/1185841674259447808/4SFvR87s_normal.jpg", "profile_banner_url": "https://pbs.twimg.com/profile_banners/2873901385/1571561664", "profile_link_color": "1DA1F2", "profile_sidebar_border_color": "C0DEED", "profile_sidebar_fill_color": "DDEEF6", "profile_text_color": "333333", "profile_use_background_image": true, "has_extended_profile": false, "default_profile": true, "default_profile_image": false, "following": false, "follow_request_sent": false, "notifications": false, "translator_type": "none", "withheld_in_countries": []}, "geo": null, "coordinates": null, "place": null, "contributors": null, "retweeted_status": {"created_at": "Wed Sep 29 11:06:08 +0000 2021", "id": 1443170220789706756, "id_str": "1443170220789706756", "full_text": "Have the extra comforts of a fully-serviced pitch.\n\u2611\ufe0f 9m x 6m gravel hardstanding \n\u2611\ufe0f 16A Ehc.\n\u2611\ufe0f Fresh water tap\n\u2611\ufe0f Grey water drain on pitch\n\u2611\ufe0f Digital TV socket \nRead more: https://t.co/jB0Wszs6pD\n\n#5Star #CaravanClub #Touring #CaravanPark #Bath #Bristol #Somerset #SouthWest https://t.co/4i0wBut8HO", "truncated": false, "display_text_range": [0, 278], "entities": {"hashtags": [{"text": "5Star", "indices": [201, 207]}, {"text": "CaravanClub", "indices": [208, 220]}, {"text": "Touring", "indices": [221, 229]}, {"text": "CaravanPark", "indices": [230, 242]}, {"text": "Bath", "indices": [243, 248]}, {"text": "Bristol", "indices": [249, 257]}, {"text": "Somerset", "indices": [258, 267]}, {"text": "SouthWest", "indices": [268, 278]}], "symbols": [], "user_mentions": [], "urls": [{"url": "https://t.co/jB0Wszs6pD", "expanded_url": "http://bit.ly/bath_chew_valley", "display_url": "bit.ly/bath_chew_vall\u2026", "indices": [176, 199]}], "media": [{"id": 1443170207481143302, "id_str": "1443170207481143302", "indices": [279, 302], "media_url": "http://pbs.twimg.com/media/FAcrqE9XIAYegSl.jpg", "media_url_https": "https://pbs.twimg.com/media/FAcrqE9XIAYegSl.jpg", "url": "https://t.co/4i0wBut8HO", "display_url": "pic.twitter.com/4i0wBut8HO", "expanded_url": "https://twitter.com/BathCaravanPark/status/1443170220789706756/photo/1", "type": "photo", "sizes": {"thumb": {"w": 150, "h": 150, "resize": "crop"}, "large": {"w": 1024, "h": 590, "resize": "fit"}, "small": {"w": 680, "h": 392, "resize": "fit"}, "medium": {"w": 1024, "h": 590, "resize": "fit"}}}]}, "extended_entities": {"media": [{"id": 1443170207481143302, "id_str": "1443170207481143302", "indices": [279, 302], "media_url": "http://pbs.twimg.com/media/FAcrqE9XIAYegSl.jpg", "media_url_https": "https://pbs.twimg.com/media/FAcrqE9XIAYegSl.jpg", "url": "https://t.co/4i0wBut8HO", "display_url": "pic.twitter.com/4i0wBut8HO", "expanded_url": "https://twitter.com/BathCaravanPark/status/1443170220789706756/photo/1", "type": "photo", "sizes": {"thumb": {"w": 150, "h": 150, "resize": "crop"}, "large": {"w": 1024, "h": 590, "resize": "fit"}, "small": {"w": 680, "h": 392, "resize": "fit"}, "medium": {"w": 1024, "h": 590, "resize": "fit"}}}]}, "metadata": {"iso_language_code": "en", "result_type": "recent"}, "source": "<a href=\"https://mobile.twitter.com\" rel=\"nofollow\">Twitter Web App</a>", "in_reply_to_status_id": null, "in_reply_to_status_id_str": null, "in_reply_to_user_id": null, "in_reply_to_user_id_str": null, "in_reply_to_screen_name": null, "user": {"id": 2473702748, "id_str": "2473702748", "name": "Bath Caravan Park", "screen_name": "BathCaravanPark", "location": "Bishop Sutton, Bath, Somerset", "description": "Bath Chew Valley 5-star multi award-winning touring park for adults. Caravan & Motorhome Club Affiliate. Open all year, central to Bath, Bristol, Cheddar, Wells", "url": "https://t.co/gVjs3wGVNu", "entities": {"url": {"urls": [{"url": "https://t.co/gVjs3wGVNu", "expanded_url": "https://www.bathchewvalley.co.uk", "display_url": "bathchewvalley.co.uk", "indices": [0, 23]}]}, "description": {"urls": []}}, "protected": false, "followers_count": 1881, "friends_count": 2462, "listed_count": 36, "created_at": "Fri May 02 08:55:15 +0000 2014", "favourites_count": 2927, "utc_offset": null, "time_zone": null, "geo_enabled": false, "verified": false, "statuses_count": 4070, "lang": null, "contributors_enabled": false, "is_translator": false, "is_translation_enabled": false, "profile_background_color": "B2DFDA", "profile_background_image_url": "http://abs.twimg.com/images/themes/theme13/bg.gif", "profile_background_image_url_https": "https://abs.twimg.com/images/themes/theme13/bg.gif", "profile_background_tile": false, "profile_image_url": "http://pbs.twimg.com/profile_images/1203278340448309248/mXTy3wTi_normal.png", "profile_image_url_https": "https://pbs.twimg.com/profile_images/1203278340448309248/mXTy3wTi_normal.png", "profile_banner_url": "https://pbs.twimg.com/profile_banners/2473702748/1400857905", "profile_link_color": "93A644", "profile_sidebar_border_color": "FFFFFF", "profile_sidebar_fill_color": "FFFFFF", "profile_text_color": "333333", "profile_use_background_image": true, "has_extended_profile": false, "default_profile": false, "default_profile_image": false, "following": false, "follow_request_sent": false, "notifications": false, "translator_type": "none", "withheld_in_countries": []}, "geo": null, "coordinates": null, "place": null, "contributors": null, "is_quote_status": false, "retweet_count": 1, "favorite_count": 3, "favorited": false, "retweeted": false, "possibly_sensitive": false, "lang": "en"}, "is_quote_status": false, "retweet_count": 1, "favorite_count": 0, "favorited": false, "retweeted": false, "lang": "en"}
{"created_at": "Wed Sep 29 11:06:08 +0000 2021", "id": 1443170220789706756, "id_str": "1443170220789706756", "full_text": "Have the extra comforts of a fully-serviced pitch.\n\u2611\ufe0f 9m x 6m gravel hardstanding \n\u2611\ufe0f 16A Ehc.\n\u2611\ufe0f Fresh water tap\n\u2611\ufe0f Grey water drain on pitch\n\u2611\ufe0f Digital TV socket \nRead more: https://t.co/jB0Wszs6pD\n\n#5Star #CaravanClub #Touring #CaravanPark #Bath #Bristol #Somerset #SouthWest https://t.co/4i0wBut8HO", "truncated": false, "display_text_range": [0, 278], "entities": {"hashtags": [{"text": "5Star", "indices": [201, 207]}, {"text": "CaravanClub", "indices": [208, 220]}, {"text": "Touring", "indices": [221, 229]}, {"text": "CaravanPark", "indices": [230, 242]}, {"text": "Bath", "indices": [243, 248]}, {"text": "Bristol", "indices": [249, 257]}, {"text": "Somerset", "indices": [258, 267]}, {"text": "SouthWest", "indices": [268, 278]}], "symbols": [], "user_mentions": [], "urls": [{"url": "https://t.co/jB0Wszs6pD", "expanded_url": "http://bit.ly/bath_chew_valley", "display_url": "bit.ly/bath_chew_vall\u2026", "indices": [176, 199]}], "media": [{"id": 1443170207481143302, "id_str": "1443170207481143302", "indices": [279, 302], "media_url": "http://pbs.twimg.com/media/FAcrqE9XIAYegSl.jpg", "media_url_https": "https://pbs.twimg.com/media/FAcrqE9XIAYegSl.jpg", "url": "https://t.co/4i0wBut8HO", "display_url": "pic.twitter.com/4i0wBut8HO", "expanded_url": "https://twitter.com/BathCaravanPark/status/1443170220789706756/photo/1", "type": "photo", "sizes": {"thumb": {"w": 150, "h": 150, "resize": "crop"}, "large": {"w": 1024, "h": 590, "resize": "fit"}, "small": {"w": 680, "h": 392, "resize": "fit"}, "medium": {"w": 1024, "h": 590, "resize": "fit"}}}]}, "extended_entities": {"media": [{"id": 1443170207481143302, "id_str": "1443170207481143302", "indices": [279, 302], "media_url": "http://pbs.twimg.com/media/FAcrqE9XIAYegSl.jpg", "media_url_https": "https://pbs.twimg.com/media/FAcrqE9XIAYegSl.jpg", "url": "https://t.co/4i0wBut8HO", "display_url": "pic.twitter.com/4i0wBut8HO", "expanded_url": "https://twitter.com/BathCaravanPark/status/1443170220789706756/photo/1", "type": "photo", "sizes": {"thumb": {"w": 150, "h": 150, "resize": "crop"}, "large": {"w": 1024, "h": 590, "resize": "fit"}, "small": {"w": 680, "h": 392, "resize": "fit"}, "medium": {"w": 1024, "h": 590, "resize": "fit"}}}]}, "metadata": {"iso_language_code": "en", "result_type": "recent"}, "source": "<a href=\"https://mobile.twitter.com\" rel=\"nofollow\">Twitter Web App</a>", "in_reply_to_status_id": null, "in_reply_to_status_id_str": null, "in_reply_to_user_id": null, "in_reply_to_user_id_str": null, "in_reply_to_screen_name": null, "user": {"id": 2473702748, "id_str": "2473702748", "name": "Bath Caravan Park", "screen_name": "BathCaravanPark", "location": "Bishop Sutton, Bath, Somerset", "description": "Bath Chew Valley 5-star multi award-winning touring park for adults. Caravan & Motorhome Club Affiliate. Open all year, central to Bath, Bristol, Cheddar, Wells", "url": "https://t.co/gVjs3wGVNu", "entities": {"url": {"urls": [{"url": "https://t.co/gVjs3wGVNu", "expanded_url": "https://www.bathchewvalley.co.uk", "display_url": "bathchewvalley.co.uk", "indices": [0, 23]}]}, "description": {"urls": []}}, "protected": false, "followers_count": 1881, "friends_count": 2462, "listed_count": 36, "created_at": "Fri May 02 08:55:15 +0000 2014", "favourites_count": 2927, "utc_offset": null, "time_zone": null, "geo_enabled": false, "verified": false, "statuses_count": 4070, "lang": null, "contributors_enabled": false, "is_translator": false, "is_translation_enabled": false, "profile_background_color": "B2DFDA", "profile_background_image_url": "http://abs.twimg.com/images/themes/theme13/bg.gif", "profile_background_image_url_https": "https://abs.twimg.com/images/themes/theme13/bg.gif", "profile_background_tile": false, "profile_image_url": "http://pbs.twimg.com/profile_images/1203278340448309248/mXTy3wTi_normal.png", "profile_image_url_https": "https://pbs.twimg.com/profile_images/1203278340448309248/mXTy3wTi_normal.png", "profile_banner_url": "https://pbs.twimg.com/profile_banners/2473702748/1400857905", "profile_link_color": "93A644", "profile_sidebar_border_color": "FFFFFF", "profile_sidebar_fill_color": "FFFFFF", "profile_text_color": "333333", "profile_use_background_image": true, "has_extended_profile": false, "default_profile": false, "default_profile_image": false, "following": false, "follow_request_sent": false, "notifications": false, "translator_type": "none", "withheld_in_countries": []}, "geo": null, "coordinates": null, "place": null, "contributors": null, "is_quote_status": false, "retweet_count": 1, "favorite_count": 3, "favorited": false, "retweeted": false, "possibly_sensitive": false, "lang": "en"}
