id ,actionable_insight ,details ,sentiment,severity (%)
123,flooding reported - twitter ,3 reports on social media ,ok ,98
321,flooding reported - twitter ,1 report on social media ,ok ,78
321,CSO overflow reported  - twitter ,1 report on social media ,ok ,78
321,Fat berg report ,photo on social media ,ok ,50
